filename,title,description,figshare_id,doi
data-raw/left-10th-rib/01riba5x.tif,Micro-radiograph of Rib #01,"Micro-radiograph of 250 μm thick transverse section cut of the mid-diaphysis of the left tenth rib (5✕ magnification) obtained post-mortem from Thoroughbred racehorse #01 at the Hong Kong Jockey Club by point projection digital micro-radiography at 26 kV (Faxitron, QADOS, Sandhurts, Berkshire, UK) and stored as 8-bit Tag Image File Format (TIFF).",19403138,10.6084/m9.figshare.19403138
data-raw/left-10th-rib/02ribb5x.tif,Micro-radiograph of Rib #02,"Micro-radiograph of 250 μm thick transverse section cut of the mid-diaphysis of the left tenth rib (5✕ magnification) obtained post-mortem from Thoroughbred racehorse #02 at the Hong Kong Jockey Club by point projection digital micro-radiography at 26 kV (Faxitron, QADOS, Sandhurts, Berkshire, UK) and stored as 8-bit Tag Image File Format (TIFF).",19403141,10.6084/m9.figshare.19403141
data-raw/left-10th-rib/03ribb5x.tif,Micro-radiograph of Rib #03,"Micro-radiograph of 250 μm thick transverse section cut of the mid-diaphysis of the left tenth rib (5✕ magnification) obtained post-mortem from Thoroughbred racehorse #03 at the Hong Kong Jockey Club by point projection digital micro-radiography at 26 kV (Faxitron, QADOS, Sandhurts, Berkshire, UK) and stored as 8-bit Tag Image File Format (TIFF).",19403144,10.6084/m9.figshare.19403144
data-raw/left-10th-rib/04riba5x.tif,Micro-radiograph of Rib #04,"Micro-radiograph of 250 μm thick transverse section cut of the mid-diaphysis of the left tenth rib (5✕ magnification) obtained post-mortem from Thoroughbred racehorse #04 at the Hong Kong Jockey Club by point projection digital micro-radiography at 26 kV (Faxitron, QADOS, Sandhurts, Berkshire, UK) and stored as 8-bit Tag Image File Format (TIFF).",19403147,10.6084/m9.figshare.19403147
data-raw/left-10th-rib/05riba5x.tif,Micro-radiograph of Rib #05,"Micro-radiograph of 250 μm thick transverse section cut of the mid-diaphysis of the left tenth rib (5✕ magnification) obtained post-mortem from Thoroughbred racehorse #05 at the Hong Kong Jockey Club by point projection digital micro-radiography at 26 kV (Faxitron, QADOS, Sandhurts, Berkshire, UK) and stored as 8-bit Tag Image File Format (TIFF).",19403150,10.6084/m9.figshare.19403150
data-raw/left-10th-rib/06ribb5x.tif,Micro-radiograph of Rib #06,"Micro-radiograph of 250 μm thick transverse section cut of the mid-diaphysis of the left tenth rib (5✕ magnification) obtained post-mortem from Thoroughbred racehorse #06 at the Hong Kong Jockey Club by point projection digital micro-radiography at 26 kV (Faxitron, QADOS, Sandhurts, Berkshire, UK) and stored as 8-bit Tag Image File Format (TIFF).",19403153,10.6084/m9.figshare.19403153
data-raw/left-10th-rib/07ribc5x.tif,Micro-radiograph of Rib #07,"Micro-radiograph of 250 μm thick transverse section cut of the mid-diaphysis of the left tenth rib (5✕ magnification) obtained post-mortem from Thoroughbred racehorse #07 at the Hong Kong Jockey Club by point projection digital micro-radiography at 26 kV (Faxitron, QADOS, Sandhurts, Berkshire, UK) and stored as 8-bit Tag Image File Format (TIFF).",19403159,10.6084/m9.figshare.19403159
data-raw/left-10th-rib/08ribc5x.tif,Micro-radiograph of Rib #08,"Micro-radiograph of 250 μm thick transverse section cut of the mid-diaphysis of the left tenth rib (5✕ magnification) obtained post-mortem from Thoroughbred racehorse #08 at the Hong Kong Jockey Club by point projection digital micro-radiography at 26 kV (Faxitron, QADOS, Sandhurts, Berkshire, UK) and stored as 8-bit Tag Image File Format (TIFF).",19403162,10.6084/m9.figshare.19403162
data-raw/left-10th-rib/09ribc5x.tif,Micro-radiograph of Rib #09,"Micro-radiograph of 250 μm thick transverse section cut of the mid-diaphysis of the left tenth rib (5✕ magnification) obtained post-mortem from Thoroughbred racehorse #09 at the Hong Kong Jockey Club by point projection digital micro-radiography at 26 kV (Faxitron, QADOS, Sandhurts, Berkshire, UK) and stored as 8-bit Tag Image File Format (TIFF).",19403165,10.6084/m9.figshare.19403165
data-raw/left-10th-rib/10ribb5x.tif,Micro-radiograph of Rib #10,"Micro-radiograph of 250 μm thick transverse section cut of the mid-diaphysis of the left tenth rib (5✕ magnification) obtained post-mortem from Thoroughbred racehorse #10 at the Hong Kong Jockey Club by point projection digital micro-radiography at 26 kV (Faxitron, QADOS, Sandhurts, Berkshire, UK) and stored as 8-bit Tag Image File Format (TIFF).",19403168,10.6084/m9.figshare.19403168
data-raw/left-10th-rib/11ribb5x.tif,Micro-radiograph of Rib #11,"Micro-radiograph of 250 μm thick transverse section cut of the mid-diaphysis of the left tenth rib (5✕ magnification) obtained post-mortem from Thoroughbred racehorse #11 at the Hong Kong Jockey Club by point projection digital micro-radiography at 26 kV (Faxitron, QADOS, Sandhurts, Berkshire, UK) and stored as 8-bit Tag Image File Format (TIFF).",19403171,10.6084/m9.figshare.19403171
data-raw/left-10th-rib/12ribb5x.tif,Micro-radiograph of Rib #12,"Micro-radiograph of 250 μm thick transverse section cut of the mid-diaphysis of the left tenth rib (5✕ magnification) obtained post-mortem from Thoroughbred racehorse #12 at the Hong Kong Jockey Club by point projection digital micro-radiography at 26 kV (Faxitron, QADOS, Sandhurts, Berkshire, UK) and stored as 8-bit Tag Image File Format (TIFF).",19403174,10.6084/m9.figshare.19403174
data-raw/left-proximal-humerus-proximal-to-deltoid-tuberosity/01huma3x.tif,Micro-radiograph of Humerus #01,"Micro-radiograph of 250 μm thick transverse section cut of the proximal left humerus (3✕ magnification) obtained post-mortem from Thoroughbred racehorse #01 at the Hong Kong Jockey Club by point projection digital micro-radiography at 26 kV (Faxitron, QADOS, Sandhurts, Berkshire, UK) and stored as 8-bit Tag Image File Format (TIFF).",19403177,10.6084/m9.figshare.19403177
data-raw/left-proximal-humerus-proximal-to-deltoid-tuberosity/02huma3x.tif,Micro-radiograph of Humerus #02,"Micro-radiograph of 250 μm thick transverse section cut of the proximal left humerus (3✕ magnification) obtained post-mortem from Thoroughbred racehorse #02 at the Hong Kong Jockey Club by point projection digital micro-radiography at 26 kV (Faxitron, QADOS, Sandhurts, Berkshire, UK) and stored as 8-bit Tag Image File Format (TIFF).",19403180,10.6084/m9.figshare.19403180
data-raw/left-proximal-humerus-proximal-to-deltoid-tuberosity/03huma3x.tif,Micro-radiograph of Humerus #03,"Micro-radiograph of 250 μm thick transverse section cut of the proximal left humerus (3✕ magnification) obtained post-mortem from Thoroughbred racehorse #03 at the Hong Kong Jockey Club by point projection digital micro-radiography at 26 kV (Faxitron, QADOS, Sandhurts, Berkshire, UK) and stored as 8-bit Tag Image File Format (TIFF).",19403183,10.6084/m9.figshare.19403183
data-raw/left-proximal-humerus-proximal-to-deltoid-tuberosity/04huma3x.tif,Micro-radiograph of Humerus #04,"Micro-radiograph of 250 μm thick transverse section cut of the proximal left humerus (3✕ magnification) obtained post-mortem from Thoroughbred racehorse #04 at the Hong Kong Jockey Club by point projection digital micro-radiography at 26 kV (Faxitron, QADOS, Sandhurts, Berkshire, UK) and stored as 8-bit Tag Image File Format (TIFF).",19403186,10.6084/m9.figshare.19403186
data-raw/left-proximal-humerus-proximal-to-deltoid-tuberosity/05huma2x.tif,Micro-radiograph of Humerus #05,"Micro-radiograph of 250 μm thick transverse section cut of the proximal left humerus (2✕ magnification) obtained post-mortem from Thoroughbred racehorse #05 at the Hong Kong Jockey Club by point projection digital micro-radiography at 26 kV (Faxitron, QADOS, Sandhurts, Berkshire, UK) and stored as 8-bit Tag Image File Format (TIFF).",19403189,10.6084/m9.figshare.19403189
data-raw/left-proximal-humerus-proximal-to-deltoid-tuberosity/06huma3x.tif,Micro-radiograph of Humerus #06,"Micro-radiograph of 250 μm thick transverse section cut of the proximal left humerus (3✕ magnification) obtained post-mortem from Thoroughbred racehorse #06 at the Hong Kong Jockey Club by point projection digital micro-radiography at 26 kV (Faxitron, QADOS, Sandhurts, Berkshire, UK) and stored as 8-bit Tag Image File Format (TIFF).",19403192,10.6084/m9.figshare.19403192
data-raw/left-proximal-humerus-proximal-to-deltoid-tuberosity/07humc3x.tif,Micro-radiograph of Humerus #07,"Micro-radiograph of 250 μm thick transverse section cut of the proximal left humerus (3✕ magnification) obtained post-mortem from Thoroughbred racehorse #07 at the Hong Kong Jockey Club by point projection digital micro-radiography at 26 kV (Faxitron, QADOS, Sandhurts, Berkshire, UK) and stored as 8-bit Tag Image File Format (TIFF).",19403195,10.6084/m9.figshare.19403195
data-raw/left-proximal-humerus-proximal-to-deltoid-tuberosity/08humb3x.tif,Micro-radiograph of Humerus #08,"Micro-radiograph of 250 μm thick transverse section cut of the proximal left humerus (3✕ magnification) obtained post-mortem from Thoroughbred racehorse #08 at the Hong Kong Jockey Club by point projection digital micro-radiography at 26 kV (Faxitron, QADOS, Sandhurts, Berkshire, UK) and stored as 8-bit Tag Image File Format (TIFF).",19403198,10.6084/m9.figshare.19403198
data-raw/left-proximal-humerus-proximal-to-deltoid-tuberosity/09humb3x.tif,Micro-radiograph of Humerus #09,"Micro-radiograph of 250 μm thick transverse section cut of the proximal left humerus (3✕ magnification) obtained post-mortem from Thoroughbred racehorse #09 at the Hong Kong Jockey Club by point projection digital micro-radiography at 26 kV (Faxitron, QADOS, Sandhurts, Berkshire, UK) and stored as 8-bit Tag Image File Format (TIFF).",19403201,10.6084/m9.figshare.19403201
data-raw/left-proximal-humerus-proximal-to-deltoid-tuberosity/10huma3x.tif,Micro-radiograph of Humerus #10,"Micro-radiograph of 250 μm thick transverse section cut of the proximal left humerus (3✕ magnification) obtained post-mortem from Thoroughbred racehorse #10 at the Hong Kong Jockey Club by point projection digital micro-radiography at 26 kV (Faxitron, QADOS, Sandhurts, Berkshire, UK) and stored as 8-bit Tag Image File Format (TIFF).",19403204,10.6084/m9.figshare.19403204
data-raw/left-proximal-humerus-proximal-to-deltoid-tuberosity/11huma3x.tif,Micro-radiograph of Humerus #11,"Micro-radiograph of 250 μm thick transverse section cut of the proximal left humerus (3✕ magnification) obtained post-mortem from Thoroughbred racehorse #11 at the Hong Kong Jockey Club by point projection digital micro-radiography at 26 kV (Faxitron, QADOS, Sandhurts, Berkshire, UK) and stored as 8-bit Tag Image File Format (TIFF).",19403207,10.6084/m9.figshare.19403207
data-raw/left-proximal-humerus-proximal-to-deltoid-tuberosity/12humc3x.tif,Micro-radiograph of Humerus #12,"Micro-radiograph of 250 μm thick transverse section cut of the proximal left humerus (3✕ magnification) obtained post-mortem from Thoroughbred racehorse #12 at the Hong Kong Jockey Club by point projection digital micro-radiography at 26 kV (Faxitron, QADOS, Sandhurts, Berkshire, UK) and stored as 8-bit Tag Image File Format (TIFF).",19403210,10.6084/m9.figshare.19403210
data-raw/left-tibia-distal-third/01tibb2x.tif,Micro-radiograph of Tibia #01,"Micro-radiograph of 250 μm thick transverse section cut of the distal third region of the right tibia (2✕ magnification) obtained post-mortem from Thoroughbred racehorse #01 at the Hong Kong Jockey Club by point projection digital micro-radiography at 26 kV (Faxitron, QADOS, Sandhurts, Berkshire, UK) and stored as 8-bit Tag Image File Format (TIFF).",19403213,10.6084/m9.figshare.19403213
data-raw/left-tibia-distal-third/02tibb2x.tif,Micro-radiograph of Tibia #02,"Micro-radiograph of 250 μm thick transverse section cut of the distal third region of the right tibia (2✕ magnification) obtained post-mortem from Thoroughbred racehorse #02 at the Hong Kong Jockey Club by point projection digital micro-radiography at 26 kV (Faxitron, QADOS, Sandhurts, Berkshire, UK) and stored as 8-bit Tag Image File Format (TIFF).",19403216,10.6084/m9.figshare.19403216
data-raw/left-tibia-distal-third/03tibc2x.tif,Micro-radiograph of Tibia #03,"Micro-radiograph of 250 μm thick transverse section cut of the distal third region of the right tibia (2✕ magnification) obtained post-mortem from Thoroughbred racehorse #03 at the Hong Kong Jockey Club by point projection digital micro-radiography at 26 kV (Faxitron, QADOS, Sandhurts, Berkshire, UK) and stored as 8-bit Tag Image File Format (TIFF).",19403219,10.6084/m9.figshare.19403219
data-raw/left-tibia-distal-third/04tibb2x.tif,Micro-radiograph of Tibia #04,"Micro-radiograph of 250 μm thick transverse section cut of the distal third region of the right tibia (2✕ magnification) obtained post-mortem from Thoroughbred racehorse #04 at the Hong Kong Jockey Club by point projection digital micro-radiography at 26 kV (Faxitron, QADOS, Sandhurts, Berkshire, UK) and stored as 8-bit Tag Image File Format (TIFF).",19403222,10.6084/m9.figshare.19403222
data-raw/left-tibia-distal-third/05tibb2x.tif,Micro-radiograph of Tibia #05,"Micro-radiograph of 250 μm thick transverse section cut of the distal third region of the right tibia (2✕ magnification) obtained post-mortem from Thoroughbred racehorse #05 at the Hong Kong Jockey Club by point projection digital micro-radiography at 26 kV (Faxitron, QADOS, Sandhurts, Berkshire, UK) and stored as 8-bit Tag Image File Format (TIFF).",19403225,10.6084/m9.figshare.19403225
data-raw/left-tibia-distal-third/06tibc2x.tif,Micro-radiograph of Tibia #06,"Micro-radiograph of 250 μm thick transverse section cut of the distal third region of the right tibia (2✕ magnification) obtained post-mortem from Thoroughbred racehorse #06 at the Hong Kong Jockey Club by point projection digital micro-radiography at 26 kV (Faxitron, QADOS, Sandhurts, Berkshire, UK) and stored as 8-bit Tag Image File Format (TIFF).",19403234,10.6084/m9.figshare.19403234
data-raw/left-tibia-distal-third/07tiba2x.tif,Micro-radiograph of Tibia #07,"Micro-radiograph of 250 μm thick transverse section cut of the distal third region of the right tibia (2✕ magnification) obtained post-mortem from Thoroughbred racehorse #07 at the Hong Kong Jockey Club by point projection digital micro-radiography at 26 kV (Faxitron, QADOS, Sandhurts, Berkshire, UK) and stored as 8-bit Tag Image File Format (TIFF).",19403237,10.6084/m9.figshare.19403237
data-raw/left-tibia-distal-third/08tibc2x.tif,Micro-radiograph of Tibia #08,"Micro-radiograph of 250 μm thick transverse section cut of the distal third region of the right tibia (2✕ magnification) obtained post-mortem from Thoroughbred racehorse #08 at the Hong Kong Jockey Club by point projection digital micro-radiography at 26 kV (Faxitron, QADOS, Sandhurts, Berkshire, UK) and stored as 8-bit Tag Image File Format (TIFF).",19403240,10.6084/m9.figshare.19403240
data-raw/left-tibia-distal-third/09tibc2x.tif,Micro-radiograph of Tibia #09,"Micro-radiograph of 250 μm thick transverse section cut of the distal third region of the right tibia (2✕ magnification) obtained post-mortem from Thoroughbred racehorse #09 at the Hong Kong Jockey Club by point projection digital micro-radiography at 26 kV (Faxitron, QADOS, Sandhurts, Berkshire, UK) and stored as 8-bit Tag Image File Format (TIFF).",19403246,10.6084/m9.figshare.19403246
data-raw/left-tibia-distal-third/10tiba2x.tif,Micro-radiograph of Tibia #10,"Micro-radiograph of 250 μm thick transverse section cut of the distal third region of the right tibia (2✕ magnification) obtained post-mortem from Thoroughbred racehorse #10 at the Hong Kong Jockey Club by point projection digital micro-radiography at 26 kV (Faxitron, QADOS, Sandhurts, Berkshire, UK) and stored as 8-bit Tag Image File Format (TIFF).",19403249,10.6084/m9.figshare.19403249
data-raw/left-tibia-distal-third/12tibc2x.tif,Micro-radiograph of Tibia #12,"Micro-radiograph of 250 μm thick transverse section cut of the distal third region of the right tibia (2✕ magnification) obtained post-mortem from Thoroughbred racehorse #12 at the Hong Kong Jockey Club by point projection digital micro-radiography at 26 kV (Faxitron, QADOS, Sandhurts, Berkshire, UK) and stored as 8-bit Tag Image File Format (TIFF).",19403252,10.6084/m9.figshare.19403252
data-raw/right-metacarpal-3-distal-diaphysis-lateral-aspect/01mc3dc3x.tif,Micro-radiograph of Metacarpal Diaphysis #01,"Micro-radiograph of transverse 250 μm thick section cut of the mid-diaphysis of the right third metacarpal (3✕ magnification) obtained post-mortem from Thoroughbred racehorse #01 at the Hong Kong Jockey Club by point projection digital micro-radiography at 26 kV (Faxitron, QADOS, Sandhurts, Berkshire, UK) and stored as 8-bit Tag Image File Format (TIFF).",19403255,10.6084/m9.figshare.19403255
data-raw/right-metacarpal-3-distal-diaphysis-lateral-aspect/02mc3db3x.tif,Micro-radiograph of Metacarpal Diaphysis #02,"Micro-radiograph of transverse 250 μm thick section cut of the mid-diaphysis of the right third metacarpal (3✕ magnification) obtained post-mortem from Thoroughbred racehorse #02 at the Hong Kong Jockey Club by point projection digital micro-radiography at 26 kV (Faxitron, QADOS, Sandhurts, Berkshire, UK) and stored as 8-bit Tag Image File Format (TIFF).",19403258,10.6084/m9.figshare.19403258
data-raw/right-metacarpal-3-distal-diaphysis-lateral-aspect/03mc3da3x.tif,Micro-radiograph of Metacarpal Diaphysis #03,"Micro-radiograph of transverse 250 μm thick section cut of the mid-diaphysis of the right third metacarpal (3✕ magnification) obtained post-mortem from Thoroughbred racehorse #03 at the Hong Kong Jockey Club by point projection digital micro-radiography at 26 kV (Faxitron, QADOS, Sandhurts, Berkshire, UK) and stored as 8-bit Tag Image File Format (TIFF).",19403261,10.6084/m9.figshare.19403261
data-raw/right-metacarpal-3-distal-diaphysis-lateral-aspect/04mc3da3x.tif,Micro-radiograph of Metacarpal Diaphysis #04,"Micro-radiograph of transverse 250 μm thick section cut of the mid-diaphysis of the right third metacarpal (3✕ magnification) obtained post-mortem from Thoroughbred racehorse #04 at the Hong Kong Jockey Club by point projection digital micro-radiography at 26 kV (Faxitron, QADOS, Sandhurts, Berkshire, UK) and stored as 8-bit Tag Image File Format (TIFF).",19403264,10.6084/m9.figshare.19403264
data-raw/right-metacarpal-3-distal-diaphysis-lateral-aspect/05mc3da3x.tif,Micro-radiograph of Metacarpal Diaphysis #05,"Micro-radiograph of transverse 250 μm thick section cut of the mid-diaphysis of the right third metacarpal (3✕ magnification) obtained post-mortem from Thoroughbred racehorse #05 at the Hong Kong Jockey Club by point projection digital micro-radiography at 26 kV (Faxitron, QADOS, Sandhurts, Berkshire, UK) and stored as 8-bit Tag Image File Format (TIFF).",19403267,10.6084/m9.figshare.19403267
data-raw/right-metacarpal-3-distal-diaphysis-lateral-aspect/06mc3da3x.tif,Micro-radiograph of Metacarpal Diaphysis #06,"Micro-radiograph of transverse 250 μm thick section cut of the mid-diaphysis of the right third metacarpal (3✕ magnification) obtained post-mortem from Thoroughbred racehorse #06 at the Hong Kong Jockey Club by point projection digital micro-radiography at 26 kV (Faxitron, QADOS, Sandhurts, Berkshire, UK) and stored as 8-bit Tag Image File Format (TIFF).",19403270,10.6084/m9.figshare.19403270
data-raw/right-metacarpal-3-distal-diaphysis-lateral-aspect/07mc3db3x.tif,Micro-radiograph of Metacarpal Diaphysis #07,"Micro-radiograph of transverse 250 μm thick section cut of the mid-diaphysis of the right third metacarpal (3✕ magnification) obtained post-mortem from Thoroughbred racehorse #07 at the Hong Kong Jockey Club by point projection digital micro-radiography at 26 kV (Faxitron, QADOS, Sandhurts, Berkshire, UK) and stored as 8-bit Tag Image File Format (TIFF).",19403273,10.6084/m9.figshare.19403273
data-raw/right-metacarpal-3-distal-diaphysis-lateral-aspect/08mc3db3x.tif,Micro-radiograph of Metacarpal Diaphysis #08,"Micro-radiograph of transverse 250 μm thick section cut of the mid-diaphysis of the right third metacarpal (3✕ magnification) obtained post-mortem from Thoroughbred racehorse #08 at the Hong Kong Jockey Club by point projection digital micro-radiography at 26 kV (Faxitron, QADOS, Sandhurts, Berkshire, UK) and stored as 8-bit Tag Image File Format (TIFF).",19403276,10.6084/m9.figshare.19403276
data-raw/right-metacarpal-3-distal-diaphysis-lateral-aspect/09mc3dc3x.tif,Micro-radiograph of Metacarpal Diaphysis #09,"Micro-radiograph of transverse 250 μm thick section cut of the mid-diaphysis of the right third metacarpal (3✕ magnification) obtained post-mortem from Thoroughbred racehorse #08 at the Hong Kong Jockey Club by point projection digital micro-radiography at 26 kV (Faxitron, QADOS, Sandhurts, Berkshire, UK) and stored as 8-bit Tag Image File Format (TIFF).",19403279,10.6084/m9.figshare.19403279
data-raw/right-metacarpal-3-distal-diaphysis-lateral-aspect/10mc3da3x.tif,Micro-radiograph of Metacarpal Diaphysis #10,"Micro-radiograph of transverse 250 μm thick section cut of the mid-diaphysis of the right third metacarpal (3✕ magnification) obtained post-mortem from Thoroughbred racehorse #10 at the Hong Kong Jockey Club by point projection digital micro-radiography at 26 kV (Faxitron, QADOS, Sandhurts, Berkshire, UK) and stored as 8-bit Tag Image File Format (TIFF).",19403282,10.6084/m9.figshare.19403282
data-raw/right-metacarpal-3-distal-diaphysis-lateral-aspect/11mc3da3x.tif,Micro-radiograph of Metacarpal Diaphysis #11,"Micro-radiograph of transverse 250 μm thick section cut of the mid-diaphysis of the right third metacarpal (3✕ magnification) obtained post-mortem from Thoroughbred racehorse #11 at the Hong Kong Jockey Club by point projection digital micro-radiography at 26 kV (Faxitron, QADOS, Sandhurts, Berkshire, UK) and stored as 8-bit Tag Image File Format (TIFF).",19403285,10.6084/m9.figshare.19403285
data-raw/right-metacarpal-3-distal-diaphysis-lateral-aspect/12mc3db3x.tif,Micro-radiograph of Metacarpal Diaphysis #12,"Micro-radiograph of transverse 250 μm thick section cut of the mid-diaphysis of the right third metacarpal (3✕ magnification) obtained post-mortem from Thoroughbred racehorse #12 at the Hong Kong Jockey Club by point projection digital micro-radiography at 26 kV (Faxitron, QADOS, Sandhurts, Berkshire, UK) and stored as 8-bit Tag Image File Format (TIFF).",19403288,10.6084/m9.figshare.19403288
data-raw/right-metacarpal-3-mid-diaphyseal/01mc3sa2x.tif,Micro-radiograph of Metacarpal Metaphysis #01,"Micro-radiograph of 250 μm thick transverse section cut of the mid-diaphysis of the right third metacarpal (2✕ magnification) obtained post-mortem from Thoroughbred racehorse #01 at the Hong Kong Jockey Club by point projection digital micro-radiography at 26 kV (Faxitron, QADOS, Sandhurts, Berkshire, UK) and stored as 8-bit Tag Image File Format (TIFF).",19403294,10.6084/m9.figshare.19403294
data-raw/right-metacarpal-3-mid-diaphyseal/02mc3sb2x.tif,Micro-radiograph of Metacarpal Metaphysis #02,"Micro-radiograph of 250 μm thick transverse section cut of the mid-diaphysis of the right third metacarpal (2✕ magnification) obtained post-mortem from Thoroughbred racehorse #02 at the Hong Kong Jockey Club by point projection digital micro-radiography at 26 kV (Faxitron, QADOS, Sandhurts, Berkshire, UK) and stored as 8-bit Tag Image File Format (TIFF).",19403297,10.6084/m9.figshare.19403297
data-raw/right-metacarpal-3-mid-diaphyseal/03mc3sa2x.tif,Micro-radiograph of Metacarpal Metaphysis #03,"Micro-radiograph of 250 μm thick transverse section cut of the mid-diaphysis of the right third metacarpal (2✕ magnification) obtained post-mortem from Thoroughbred racehorse #03 at the Hong Kong Jockey Club by point projection digital micro-radiography at 26 kV (Faxitron, QADOS, Sandhurts, Berkshire, UK) and stored as 8-bit Tag Image File Format (TIFF).",19403300,10.6084/m9.figshare.19403300
data-raw/right-metacarpal-3-mid-diaphyseal/04mc3sb2x.tif,Micro-radiograph of Metacarpal Metaphysis #04,"Micro-radiograph of 250 μm thick transverse section cut of the mid-diaphysis of the right third metacarpal (2✕ magnification) obtained post-mortem from Thoroughbred racehorse #04 at the Hong Kong Jockey Club by point projection digital micro-radiography at 26 kV (Faxitron, QADOS, Sandhurts, Berkshire, UK) and stored as 8-bit Tag Image File Format (TIFF).",19403303,10.6084/m9.figshare.19403303
data-raw/right-metacarpal-3-mid-diaphyseal/05mc3sb2x.tif,Micro-radiograph of Metacarpal Metaphysis #05,"Micro-radiograph of 250 μm thick transverse section cut of the mid-diaphysis of the right third metacarpal (2✕ magnification) obtained post-mortem from Thoroughbred racehorse #05 at the Hong Kong Jockey Club by point projection digital micro-radiography at 26 kV (Faxitron, QADOS, Sandhurts, Berkshire, UK) and stored as 8-bit Tag Image File Format (TIFF).",19403306,10.6084/m9.figshare.19403306
data-raw/right-metacarpal-3-mid-diaphyseal/06mc3sa2x.tif,Micro-radiograph of Metacarpal Metaphysis #06,"Micro-radiograph of 250 μm thick transverse section cut of the mid-diaphysis of the right third metacarpal (2✕ magnification) obtained post-mortem from Thoroughbred racehorse #06 at the Hong Kong Jockey Club by point projection digital micro-radiography at 26 kV (Faxitron, QADOS, Sandhurts, Berkshire, UK) and stored as 8-bit Tag Image File Format (TIFF).",19403309,10.6084/m9.figshare.19403309
data-raw/right-metacarpal-3-mid-diaphyseal/07mc3sa2x.tif,Micro-radiograph of Metacarpal Metaphysis #07,"Micro-radiograph of 250 μm thick transverse section cut of the mid-diaphysis of the right third metacarpal (2✕ magnification) obtained post-mortem from Thoroughbred racehorse #06 at the Hong Kong Jockey Club by point projection digital micro-radiography at 26 kV (Faxitron, QADOS, Sandhurts, Berkshire, UK) and stored as 8-bit Tag Image File Format (TIFF).",19403312,10.6084/m9.figshare.19403312
data-raw/right-metacarpal-3-mid-diaphyseal/08mc3sa2x.tif,Micro-radiograph of Metacarpal Metaphysis #08,"Micro-radiograph of 250 μm thick transverse section cut of the mid-diaphysis of the right third metacarpal (2✕ magnification) obtained post-mortem from Thoroughbred racehorse #08 at the Hong Kong Jockey Club by point projection digital micro-radiography at 26 kV (Faxitron, QADOS, Sandhurts, Berkshire, UK) and stored as 8-bit Tag Image File Format (TIFF).",19403315,10.6084/m9.figshare.19403315
data-raw/right-metacarpal-3-mid-diaphyseal/09mc3sb2x.tif,Micro-radiograph of Metacarpal Metaphysis #09,"Micro-radiograph of 250 μm thick transverse section cut of the mid-diaphysis of the right third metacarpal (2✕ magnification) obtained post-mortem from Thoroughbred racehorse #09 at the Hong Kong Jockey Club by point projection digital micro-radiography at 26 kV (Faxitron, QADOS, Sandhurts, Berkshire, UK) and stored as 8-bit Tag Image File Format (TIFF).",19403318,10.6084/m9.figshare.19403318
data-raw/right-metacarpal-3-mid-diaphyseal/10mc3sc2x.tif,Micro-radiograph of Metacarpal Metaphysis #10,"Micro-radiograph of 250 μm thick transverse section cut of the mid-diaphysis of the right third metacarpal (2✕ magnification) obtained post-mortem from Thoroughbred racehorse #10 at the Hong Kong Jockey Club by point projection digital micro-radiography at 26 kV (Faxitron, QADOS, Sandhurts, Berkshire, UK) and stored as 8-bit Tag Image File Format (TIFF).",19403321,10.6084/m9.figshare.19403321
data-raw/right-metacarpal-3-mid-diaphyseal/12mc3sa2x.tif,Micro-radiograph of Metacarpal Metaphysis #12,"Micro-radiograph of 250 μm thick transverse section cut of the mid-diaphysis of the right third metacarpal (2✕ magnification) obtained post-mortem from Thoroughbred racehorse #12 at the Hong Kong Jockey Club by point projection digital micro-radiography at 26 kV (Faxitron, QADOS, Sandhurts, Berkshire, UK) and stored as 8-bit Tag Image File Format (TIFF).",19403324,10.6084/m9.figshare.19403324
