<?xml version="1.0" encoding="UTF-8" standalone="no"?>
<!-- Created with Inkscape (http://www.inkscape.org/) -->

<svg
   xmlns:dc="http://purl.org/dc/elements/1.1/"
   xmlns:cc="http://creativecommons.org/ns#"
   xmlns:rdf="http://www.w3.org/1999/02/22-rdf-syntax-ns#"
   xmlns:svg="http://www.w3.org/2000/svg"
   xmlns="http://www.w3.org/2000/svg"
   xmlns:xlink="http://www.w3.org/1999/xlink"
   xmlns:sodipodi="http://sodipodi.sourceforge.net/DTD/sodipodi-0.dtd"
   xmlns:inkscape="http://www.inkscape.org/namespaces/inkscape"
   version="1.1"
   id="svg1170"
   width="11366.4"
   height="11232"
   viewBox="0 0 11366.4 11232"
   sodipodi:docname="09humb3x.svg"
   inkscape:version="0.92.5 (2060ec1f9f, 2020-04-08)">
  <metadata
     id="metadata1176">
    <rdf:RDF>
      <cc:Work
         rdf:about="">
        <dc:format>image/svg+xml</dc:format>
        <dc:type
           rdf:resource="http://purl.org/dc/dcmitype/StillImage" />
        <dc:title></dc:title>
      </cc:Work>
    </rdf:RDF>
  </metadata>
  <defs
     id="defs1174">
    <inkscape:perspective
       sodipodi:type="inkscape:persp3d"
       inkscape:vp_x="0 : 5616 : 1"
       inkscape:vp_y="0 : 1000 : 0"
       inkscape:vp_z="11366.4 : 5616 : 1"
       inkscape:persp3d-origin="5683.2 : 3744 : 1"
       id="perspective7489" />
    <inkscape:path-effect
       effect="interpolate_points"
       id="path-effect7487"
       is_visible="true"
       interpolator_type="CubicBezierFit" />
  </defs>
  <sodipodi:namedview
     pagecolor="#ffffff"
     bordercolor="#666666"
     borderopacity="1"
     objecttolerance="10"
     gridtolerance="10"
     guidetolerance="10"
     inkscape:pageopacity="0"
     inkscape:pageshadow="2"
     inkscape:window-width="2560"
     inkscape:window-height="1376"
     id="namedview1172"
     showgrid="false"
     inkscape:zoom="0.1188584"
     inkscape:cx="5947.0044"
     inkscape:cy="6229.7702"
     inkscape:window-x="0"
     inkscape:window-y="27"
     inkscape:window-maximized="1"
     inkscape:current-layer="svg1170" />
  <image
     sodipodi:absref="/home/raniere/Documents/microradiography-faxitron/data-raw/left-proximal-humerus-proximal-to-deltoid-tuberosity/09humb3x.tif"
     xlink:href="09humb3x.tif"
     y="0"
     x="0"
     id="image1178"
     preserveAspectRatio="none"
     height="11232"
     width="11366.4" />
  <path
     style="fill:#000000;stroke:none;stroke-width:1px;stroke-linecap:butt;stroke-linejoin:miter;stroke-opacity:1"
     d="M -344.94826,8110.6389 C 1224.6818,5351.6499 766.92511,5800.3468 2330.5041,3946.0197 c 476.4862,-565.089 1244.0754,-1462.1134 1876.182,-1918.2489 604.3788,-436.1268 1181.6444,-985.5394 1956.6359,-900.4064 211.612,23.2456 419.8266,86.2502 615.7373,169.5508 712.6099,302.9995 1069.7937,542.0723 1597.3475,1097.6187 271.5247,285.9321 552.1789,572.3947 755.5424,910.2203 283.4755,470.9069 460.4676,998.211 693.0762,1496.2119 355.2846,760.6422 153.1681,212.6788 538.3986,1481.339 360.212,1186.2672 709.932,2375.6949 1064.898,3563.5424"
     id="path7485"
     inkscape:connector-curvature="0"
     inkscape:path-effect="#path-effect7487"
     inkscape:original-d="M -344.94826,8110.6389 1287.2459,5241.679 2330.5041,3946.0197 3323.282,2827.0412 4206.6861,2027.7708 c 469.0175,-289.5726 941.3025,-573.7399 1413.4465,-858.164 l 543.1894,-42.2424 615.7373,169.5508 895.3475,472.9577 702,624.661 755.5424,910.2203 c 197.5777,514.4338 447.7663,1003.7194 693.0762,1496.2119 l 193.3476,401.5678 345.051,1079.7712 1064.898,3563.5424"
     sodipodi:nodetypes="ccccccccccccccc" />
</svg>
