<?xml version="1.0" encoding="UTF-8" standalone="no"?>
<!-- Created with Inkscape (http://www.inkscape.org/) -->

<svg
   xmlns:dc="http://purl.org/dc/elements/1.1/"
   xmlns:cc="http://creativecommons.org/ns#"
   xmlns:rdf="http://www.w3.org/1999/02/22-rdf-syntax-ns#"
   xmlns:svg="http://www.w3.org/2000/svg"
   xmlns="http://www.w3.org/2000/svg"
   xmlns:xlink="http://www.w3.org/1999/xlink"
   xmlns:sodipodi="http://sodipodi.sourceforge.net/DTD/sodipodi-0.dtd"
   xmlns:inkscape="http://www.inkscape.org/namespaces/inkscape"
   version="1.1"
   id="svg6700"
   width="11366.4"
   height="11232"
   viewBox="0 0 11366.4 11232"
   sodipodi:docname="11huma3x.svg"
   inkscape:version="0.92.5 (2060ec1f9f, 2020-04-08)">
  <metadata
     id="metadata6706">
    <rdf:RDF>
      <cc:Work
         rdf:about="">
        <dc:format>image/svg+xml</dc:format>
        <dc:type
           rdf:resource="http://purl.org/dc/dcmitype/StillImage" />
        <dc:title></dc:title>
      </cc:Work>
    </rdf:RDF>
  </metadata>
  <defs
     id="defs6704">
    <inkscape:path-effect
       effect="interpolate_points"
       id="path-effect7255"
       is_visible="true"
       interpolator_type="CubicBezierFit" />
  </defs>
  <sodipodi:namedview
     pagecolor="#ffffff"
     bordercolor="#666666"
     borderopacity="1"
     objecttolerance="10"
     gridtolerance="10"
     guidetolerance="10"
     inkscape:pageopacity="0"
     inkscape:pageshadow="2"
     inkscape:window-width="2560"
     inkscape:window-height="1376"
     id="namedview6702"
     showgrid="false"
     inkscape:zoom="0.084045584"
     inkscape:cx="5520.8422"
     inkscape:cy="5418.5851"
     inkscape:window-x="0"
     inkscape:window-y="27"
     inkscape:window-maximized="1"
     inkscape:current-layer="svg6700" />
  <image
     sodipodi:absref="/home/raniere/Documents/microradiography-faxitron/data-raw/left-proximal-humerus-proximal-to-deltoid-tuberosity/11huma3x.tif"
     xlink:href="11huma3x.tif"
     y="0"
     x="0"
     id="image6708"
     preserveAspectRatio="none"
     height="11232"
     width="11366.4" />
  <path
     style="fill:#000000;stroke:none;stroke-width:1px;stroke-linecap:butt;stroke-linejoin:miter;stroke-opacity:1"
     d="m 553.27119,11803.119 c 226.0678,-1195.78 487.58101,-2385.3996 678.20341,-3587.3393 65.7386,-414.5047 132.4769,-2103.2173 184.4237,-2552.1865 68.7103,-593.8534 227.146,-1270.9258 434.2881,-1832.339 104.477,-283.162 232.1074,-557.8629 368.8475,-826.9322 109.5521,-215.5703 229.3067,-427.1753 368.8475,-624.661 321.7186,-455.3137 858.0761,-792.2562 1380.2034,-945.9153 298.6796,-87.8997 623.2506,-24.9272 934.0169,-5.9491 464.5519,28.3696 813.8993,143.5157 1243.3729,315.3051 497.1011,198.8404 1044.42,421.9809 1463.4915,773.3898 193.5111,162.2671 353.9109,360.9413 517.5763,553.2712 342.6185,402.6251 794.8865,1018.1945 1058.9491,1469.4407 177.2709,302.9313 649.0779,1304.7576 797.1865,1630.0678 98.617,216.6061 183.741,439.2868 285.559,654.4068 425.732,899.4795 864.611,1792.6779 1296.916,2689.0169"
     id="path7253"
     inkscape:connector-curvature="0"
     inkscape:path-effect="#path-effect7255"
     inkscape:original-d="m 553.27119,11803.119 678.20341,-3587.3393 101.1356,-1326.6611 83.2881,-1225.5254 166.5763,-934.0169 267.7118,-898.3221 368.8475,-826.9322 368.8475,-624.661 333.1525,-368.8475 c 333.8355,-222.5456 686.3894,-404.3567 1047.0509,-577.0678 l 934.0169,-5.9491 624.661,101.1356 618.7119,214.1695 838.8305,368.8474 624.661,404.5424 517.5763,553.2712 535.4237,684.1525 523.5254,785.2882 416.4407,820.983 380.7458,809.0848 285.559,654.4068 1296.916,2689.0169"
     sodipodi:nodetypes="cccccccccccccccccccccc" />
</svg>
