ID Number,Flip horizontally,Flip vertically,Rotate anticlockwise
01,FALSE,FALSE,90
02,FALSE,FALSE,90
03,FALSE,FALSE,90
04,FALSE,FALSE,90
05,FALSE,FALSE,36
06,FALSE,FALSE,90
07,FALSE,FALSE,90
08,FALSE,FALSE,90
09,FALSE,FALSE,90
10,FALSE,FALSE,90
11,FALSE,FALSE,90
12,FALSE,FALSE,90
