<?xml version="1.0" encoding="UTF-8" standalone="no"?>
<!-- Created with Inkscape (http://www.inkscape.org/) -->

<svg
   xmlns:dc="http://purl.org/dc/elements/1.1/"
   xmlns:cc="http://creativecommons.org/ns#"
   xmlns:rdf="http://www.w3.org/1999/02/22-rdf-syntax-ns#"
   xmlns:svg="http://www.w3.org/2000/svg"
   xmlns="http://www.w3.org/2000/svg"
   xmlns:xlink="http://www.w3.org/1999/xlink"
   xmlns:sodipodi="http://sodipodi.sourceforge.net/DTD/sodipodi-0.dtd"
   xmlns:inkscape="http://www.inkscape.org/namespaces/inkscape"
   version="1.1"
   id="svg3836"
   width="11366.4"
   height="11232"
   viewBox="0 0 11366.4 11232"
   sodipodi:docname="05mc3da3x.svg"
   inkscape:version="0.92.5 (2060ec1f9f, 2020-04-08)">
  <metadata
     id="metadata3842">
    <rdf:RDF>
      <cc:Work
         rdf:about="">
        <dc:format>image/svg+xml</dc:format>
        <dc:type
           rdf:resource="http://purl.org/dc/dcmitype/StillImage" />
        <dc:title></dc:title>
      </cc:Work>
    </rdf:RDF>
  </metadata>
  <defs
     id="defs3840">
    <inkscape:path-effect
       effect="interpolate_points"
       id="path-effect7283"
       is_visible="true"
       interpolator_type="CubicBezierFit" />
  </defs>
  <sodipodi:namedview
     pagecolor="#ffffff"
     bordercolor="#666666"
     borderopacity="1"
     objecttolerance="10"
     gridtolerance="10"
     guidetolerance="10"
     inkscape:pageopacity="0"
     inkscape:pageshadow="2"
     inkscape:window-width="2560"
     inkscape:window-height="1376"
     id="namedview3838"
     showgrid="false"
     inkscape:zoom="0.084045584"
     inkscape:cx="7613.3137"
     inkscape:cy="4983.6999"
     inkscape:window-x="0"
     inkscape:window-y="27"
     inkscape:window-maximized="1"
     inkscape:current-layer="svg3836" />
  <image
     sodipodi:absref="/home/raniere/Documents/microradiography-faxitron/data-raw/right-metacarpal-3-distal-diaphysis-lateral-aspect/05mc3da3x.tif"
     xlink:href="05mc3da3x.tif"
     y="0"
     x="0"
     id="image3844"
     preserveAspectRatio="none"
     height="11232"
     width="11366.4" />
  <path
     style="fill:#000000;stroke:none;stroke-width:1px;stroke-linecap:butt;stroke-linejoin:miter;stroke-opacity:1"
     d="m 1427.7966,-452.13561 c 138.8136,1415.8983 243.6455,2835.54091 416.4407,4247.69491 112.5492,919.7988 373.2002,2178.4303 1047.0508,2879.3898 544.6625,566.5743 1848.8793,961.2009 2617.6272,606.8136 762.9201,-351.7008 1434.0325,-899.8812 2034.6101,-1487.2882 321.4494,-314.4001 481.1192,-761.8865 678.2034,-1166.0338 661.977,-1357.4719 573.6373,-4483.19487 618.7119,-5021.08478"
     id="path7281"
     inkscape:connector-curvature="0"
     inkscape:path-effect="#path-effect7283"
     inkscape:original-d="m 1427.7966,-452.13561 416.4407,4247.69491 273.661,1392.1017 773.3898,1487.2881 1296.9153,666.3051 1320.7119,-59.4915 2034.6101,-1487.2882 678.2034,-1166.0338 261.7627,-761.4916 356.9492,-4259.59318"
     sodipodi:nodetypes="cccccccccc" />
</svg>
