<?xml version="1.0" encoding="UTF-8" standalone="no"?>
<!-- Created with Inkscape (http://www.inkscape.org/) -->

<svg
   xmlns:dc="http://purl.org/dc/elements/1.1/"
   xmlns:cc="http://creativecommons.org/ns#"
   xmlns:rdf="http://www.w3.org/1999/02/22-rdf-syntax-ns#"
   xmlns:svg="http://www.w3.org/2000/svg"
   xmlns="http://www.w3.org/2000/svg"
   xmlns:xlink="http://www.w3.org/1999/xlink"
   xmlns:sodipodi="http://sodipodi.sourceforge.net/DTD/sodipodi-0.dtd"
   xmlns:inkscape="http://www.inkscape.org/namespaces/inkscape"
   version="1.1"
   id="svg4942"
   width="11366.4"
   height="11232"
   viewBox="0 0 11366.4 11232"
   sodipodi:docname="08mc3db3x.svg"
   inkscape:version="0.92.5 (2060ec1f9f, 2020-04-08)">
  <metadata
     id="metadata4948">
    <rdf:RDF>
      <cc:Work
         rdf:about="">
        <dc:format>image/svg+xml</dc:format>
        <dc:type
           rdf:resource="http://purl.org/dc/dcmitype/StillImage" />
        <dc:title></dc:title>
      </cc:Work>
    </rdf:RDF>
  </metadata>
  <defs
     id="defs4946">
    <inkscape:path-effect
       effect="interpolate_points"
       id="path-effect7237"
       is_visible="true"
       interpolator_type="CubicBezierFit" />
  </defs>
  <sodipodi:namedview
     pagecolor="#ffffff"
     bordercolor="#666666"
     borderopacity="1"
     objecttolerance="10"
     gridtolerance="10"
     guidetolerance="10"
     inkscape:pageopacity="0"
     inkscape:pageshadow="2"
     inkscape:window-width="2560"
     inkscape:window-height="1376"
     id="namedview4944"
     showgrid="false"
     inkscape:zoom="0.1188584"
     inkscape:cx="6699.0164"
     inkscape:cy="6424.8328"
     inkscape:window-x="0"
     inkscape:window-y="27"
     inkscape:window-maximized="1"
     inkscape:current-layer="svg4942" />
  <image
     sodipodi:absref="/home/raniere/Documents/microradiography-faxitron/data-raw/right-metacarpal-3-distal-diaphysis-lateral-aspect/08mc3db3x.tif"
     xlink:href="08mc3db3x.tif"
     y="0"
     x="0"
     id="image4950"
     preserveAspectRatio="none"
     height="11232"
     width="11366.4" />
  <path
     style="fill:#000000;stroke:none;stroke-width:1px;stroke-linecap:butt;stroke-linejoin:miter;stroke-opacity:1"
     d="M -816.09711,824.65856 C 715.13663,1068.6463 2259.3924,1241.598 3777.6041,1556.6219 c 1222.5334,253.6716 2841.2701,977.5282 3592.51,2002.3826 921.7764,1257.5033 926.7724,2330.522 311.2947,3592.51 -124.3819,255.0352 -336.4976,477.7946 -580.5226,622.5895 -641.6511,380.7307 -1952.0886,754.6135 -2709.1059,900.2308 -1776.2446,341.6725 -3561.66091,633.8074 -5342.49136,950.7111"
     id="path7235"
     inkscape:connector-curvature="0"
     inkscape:path-effect="#path-effect7237"
     inkscape:original-d="m -816.09711,824.65856 4593.70121,731.96334 1691.0878,572.1094 c 683.8542,417.822 1303.0955,902.801 1901.4222,1430.2732 310.4446,701.225 531.5612,1425.0431 731.9633,2162.2367 -156.476,472.1819 -290.4322,950.455 -420.6686,1430.2733 l -580.5226,622.5895 -1447.1001,580.5227 -1262.0058,319.7081 -5342.49136,950.7111"
     sodipodi:nodetypes="cccccccccc" />
</svg>
