<?xml version="1.0" encoding="UTF-8" standalone="no"?>
<!-- Created with Inkscape (http://www.inkscape.org/) -->

<svg
   xmlns:dc="http://purl.org/dc/elements/1.1/"
   xmlns:cc="http://creativecommons.org/ns#"
   xmlns:rdf="http://www.w3.org/1999/02/22-rdf-syntax-ns#"
   xmlns:svg="http://www.w3.org/2000/svg"
   xmlns="http://www.w3.org/2000/svg"
   xmlns:xlink="http://www.w3.org/1999/xlink"
   xmlns:sodipodi="http://sodipodi.sourceforge.net/DTD/sodipodi-0.dtd"
   xmlns:inkscape="http://www.inkscape.org/namespaces/inkscape"
   version="1.1"
   id="svg14777"
   width="11366.4"
   height="11232"
   viewBox="0 0 11366.4 11232"
   sodipodi:docname="02ribb5x.svg"
   inkscape:version="0.92.5 (2060ec1f9f, 2020-04-08)">
  <metadata
     id="metadata14783">
    <rdf:RDF>
      <cc:Work
         rdf:about="">
        <dc:format>image/svg+xml</dc:format>
        <dc:type
           rdf:resource="http://purl.org/dc/dcmitype/StillImage" />
        <dc:title />
      </cc:Work>
    </rdf:RDF>
  </metadata>
  <defs
     id="defs14781">
    <inkscape:path-effect
       effect="interpolate_points"
       id="path-effect17651"
       is_visible="true"
       interpolator_type="CentripetalCatmullRom" />
  </defs>
  <sodipodi:namedview
     pagecolor="#ffffff"
     bordercolor="#666666"
     borderopacity="1"
     objecttolerance="10"
     gridtolerance="10"
     guidetolerance="10"
     inkscape:pageopacity="0"
     inkscape:pageshadow="2"
     inkscape:window-width="2560"
     inkscape:window-height="1376"
     id="namedview14779"
     showgrid="false"
     inkscape:zoom="0.16809117"
     inkscape:cx="2315.0736"
     inkscape:cy="6094.6284"
     inkscape:window-x="0"
     inkscape:window-y="27"
     inkscape:window-maximized="1"
     inkscape:current-layer="svg14777" />
  <image
     sodipodi:absref="/home/raniere/Documents/microradiography-faxitron/data-raw/left-10th-rib/02ribb5x.tif"
     xlink:href="02ribb5x.tif"
     y="0"
     x="0"
     id="image14785"
     preserveAspectRatio="none"
     height="11232"
     width="11366.4" />
  <path
     style="fill:#000000;stroke:none;stroke-width:1px;stroke-linecap:butt;stroke-linejoin:miter;stroke-opacity:1"
     d="m 4991.339,2968.6271 c 200.2881,-112.0424 834.9166,-470.9156 1201.7288,-672.2542 307.2683,-168.6557 594.585,-355.0511 850.7288,-458.0848 194.2517,-78.1376 355.3312,-129.2531 535.4238,-148.7288 176.9132,-19.1319 363.9037,-46.4508 535.4237,29.7458 219.6226,97.5658 512.7951,422.233 624.661,618.7118 74.7398,131.2713 77.7005,245.6727 95.1864,380.7458 19.2565,148.7505 36.7771,324.0989 5.9492,475.9322 -30.7699,151.5479 -92.7734,255.4335 -190.3729,434.2881 -178.8468,327.7432 -655.4556,1010.1842 -880.4746,1326.6611 -129.9057,182.7052 -204.8583,274.2143 -321.2542,422.3898 -132.6665,168.8885 -250.1436,327.3018 -434.2881,535.4237 -282.2648,319.0183 -826.8891,892.2338 -1124.3899,1166.0339 -178.5555,164.3307 -267.6902,251.686 -452.1356,368.8475 -240.2322,152.5978 -603.3425,309.7654 -892.3729,428.339 -260.6859,106.9454 -512.0181,185.9423 -761.4915,261.7627 -235.9132,71.6992 -515.6228,141.3541 -696.0508,184.4237 -113.6843,27.1373 -158.2579,47.5055 -279.6102,59.4915 -219.361,21.6663 -654.9709,23.6291 -934.0169,-11.8983 -232.6508,-29.6205 -502.7433,2.3527 -630.6102,-154.6779 -181.1877,-222.5127 -171.7602,-893.6128 -47.5932,-1302.8645 134.6838,-443.9148 607.2533,-885.8362 898.322,-1243.3728 239.6766,-294.4087 480.3808,-534.4749 702,-767.4407 191.7047,-201.5197 371.1044,-383.135 547.322,-553.2712 157.6774,-152.2358 295.3106,-274.1892 458.0848,-422.3898 183.511,-167.0808 386.9585,-367.5225 588.9661,-529.4746 194.9907,-156.3266 500.7203,-356.9492 600.8644,-428.339"
     id="path17649"
     inkscape:connector-curvature="0"
     inkscape:path-effect="#path-effect17651"
     inkscape:original-d="m 4991.339,2968.6271 1201.7288,-672.2542 850.7288,-458.0848 535.4238,-148.7288 535.4237,29.7458 c 235.507,180.6814 429.5423,397.5774 624.661,618.7118 l 95.1864,380.7458 5.9492,475.9322 -190.3729,434.2881 c -316.6585,427.2791 -599.3221,875.9245 -880.4746,1326.6611 l -321.2542,422.3898 -434.2881,535.4237 c -416.4818,348.4375 -764.4925,761.9982 -1124.3899,1166.0339 l -452.1356,368.8475 -892.3729,428.339 -761.4915,261.7627 -696.0508,184.4237 -279.6102,59.4915 -934.0169,-11.8983 -630.6102,-154.6779 c -94.9012,-436.4348 -73.2389,-862.6137 -47.5932,-1302.8645 246.8677,-452.5356 578.715,-842.164 898.322,-1243.3728 l 702,-767.4407 547.322,-553.2712 458.0848,-422.3898 588.9661,-529.4746 z"
     sodipodi:nodetypes="ccccccccccccccccccccccccccc" />
</svg>
