<?xml version="1.0" encoding="UTF-8" standalone="no"?>
<!-- Created with Inkscape (http://www.inkscape.org/) -->

<svg
   xmlns:dc="http://purl.org/dc/elements/1.1/"
   xmlns:cc="http://creativecommons.org/ns#"
   xmlns:rdf="http://www.w3.org/1999/02/22-rdf-syntax-ns#"
   xmlns:svg="http://www.w3.org/2000/svg"
   xmlns="http://www.w3.org/2000/svg"
   xmlns:xlink="http://www.w3.org/1999/xlink"
   xmlns:sodipodi="http://sodipodi.sourceforge.net/DTD/sodipodi-0.dtd"
   xmlns:inkscape="http://www.inkscape.org/namespaces/inkscape"
   version="1.1"
   id="svg20192"
   width="11366.4"
   height="11232"
   viewBox="0 0 11366.4 11232"
   sodipodi:docname="05riba5x.svg"
   inkscape:version="0.92.5 (2060ec1f9f, 2020-04-08)">
  <metadata
     id="metadata20198">
    <rdf:RDF>
      <cc:Work
         rdf:about="">
        <dc:format>image/svg+xml</dc:format>
        <dc:type
           rdf:resource="http://purl.org/dc/dcmitype/StillImage" />
        <dc:title />
      </cc:Work>
    </rdf:RDF>
  </metadata>
  <defs
     id="defs20196">
    <inkscape:path-effect
       effect="interpolate_points"
       id="path-effect24450"
       is_visible="true"
       interpolator_type="CentripetalCatmullRom" />
  </defs>
  <sodipodi:namedview
     pagecolor="#ffffff"
     bordercolor="#666666"
     borderopacity="1"
     objecttolerance="10"
     gridtolerance="10"
     guidetolerance="10"
     inkscape:pageopacity="0"
     inkscape:pageshadow="2"
     inkscape:window-width="2560"
     inkscape:window-height="1376"
     id="namedview20194"
     showgrid="false"
     inkscape:zoom="0.16809117"
     inkscape:cx="4106.0394"
     inkscape:cy="6727.0581"
     inkscape:window-x="0"
     inkscape:window-y="27"
     inkscape:window-maximized="1"
     inkscape:current-layer="svg20192" />
  <image
     sodipodi:absref="/home/raniere/Documents/microradiography-faxitron/data-raw/left-10th-rib/05riba5x.tif"
     xlink:href="05riba5x.tif"
     width="11366.4"
     height="11232"
     preserveAspectRatio="none"
     id="image20200"
     x="0"
     y="0" />
  <path
     style="fill:#000000;stroke:none;stroke-width:1px;stroke-linecap:butt;stroke-linejoin:miter;stroke-opacity:1"
     d="m 6222.8136,1778.7966 c 384.7119,-78.3305 1729.9111,-403.2849 2308.2712,-469.9831 342.7437,-39.5262 597.302,-30.1748 826.9322,-23.7966 164.3741,4.5657 318.5502,-12.5394 422.3898,35.6949 78.7803,36.5941 138.4169,79.5512 172.5254,172.5255 69.5608,189.6115 -38.6849,743.7229 -83.2881,1011.3559 -30.0395,180.2459 -37.7118,246.4745 -113.0339,446.1864 -175.7644,466.0287 -848.8205,1668.9866 -1142.2373,2230.9323 -179.3874,343.559 -260.33,564.4044 -440.2373,826.9322 -189.3384,276.2901 -453.1078,559.8906 -678.2034,785.2881 -193.0712,193.3302 -396.694,363.7994 -577.0678,499.7288 -144.5229,108.9122 -265.3972,199.0689 -410.4915,267.7119 -142.7166,67.5181 -287.2527,97.7363 -452.1356,142.7796 -194.4586,53.123 -431.9335,105.4326 -642.5085,148.7289 -201.5996,41.4509 -364.3479,67.7234 -594.9152,107.0847 -318.9925,54.4568 -833.0784,150.8732 -1142.2373,184.4237 -209.3024,22.7139 -328.109,29.8607 -529.4746,29.7458 -267.4572,-0.1526 -700.1517,-32.5015 -934.017,-53.5424 -141.3261,-12.7152 -219.7355,-9.0412 -339.1016,-41.6441 -145.2958,-39.6851 -345.8389,-84.0509 -464.0339,-202.2711 -134.4907,-134.5193 -260.3898,-347.3107 -261.7628,-600.8644 -2.3528,-434.5182 565.4642,-1422.0644 749.5933,-1772.8475 82.6521,-157.4599 103.6582,-194.0783 208.2203,-327.2034 201.1142,-256.0521 733.2745,-769.5216 993.5085,-1035.1525 165.5315,-168.9644 265.0151,-263.4077 410.4915,-410.4916 167.0713,-168.9173 341.4901,-368.255 535.4237,-547.322 208.2433,-192.2797 478.0199,-409.5158 678.2034,-565.1695 151.6939,-117.9504 235.4086,-191.49 410.4916,-297.4576 271.1509,-164.1119 907.2458,-451.1441 1088.6949,-541.3729"
     id="path24448"
     inkscape:connector-curvature="0"
     inkscape:path-effect="#path-effect24450"
     inkscape:original-d="m 6222.8136,1778.7966 2308.2712,-469.9831 826.9322,-23.7966 422.3898,35.6949 172.5254,172.5255 c -15.0744,338.5304 -50.3146,674.294 -83.2881,1011.3559 l -113.0339,446.1864 c -474.6189,733.4103 -751.8526,1424.7029 -1142.2373,2230.9323 l -440.2373,826.9322 c -173.4232,305.3341 -435.3743,536.4632 -678.2034,785.2881 l -577.0678,499.7288 -410.4915,267.7119 -452.1356,142.7796 -642.5085,148.7289 -594.9152,107.0847 c -384.469,39.9902 -763.0383,111.9924 -1142.2373,184.4237 l -529.4746,29.7458 c -309.8718,-57.8589 -620.6202,-53.5424 -934.017,-53.5424 L 1873.9831,8078.9491 1409.9492,7876.678 1148.1864,7275.8136 C 1361.049,6666.3964 1673.0511,6029.308 1897.7797,5502.9661 L 2106,5175.7627 c 353.7062,-323.1789 669.8801,-682.6859 993.5085,-1035.1525 L 3510,3730.1186 l 535.4237,-547.322 678.2034,-565.1695 410.4916,-297.4576 z"
     sodipodi:nodetypes="ccccccccccccccccccccccccccccc" />
</svg>
