<?xml version="1.0" encoding="UTF-8" standalone="no"?>
<!-- Created with Inkscape (http://www.inkscape.org/) -->

<svg
   xmlns:dc="http://purl.org/dc/elements/1.1/"
   xmlns:cc="http://creativecommons.org/ns#"
   xmlns:rdf="http://www.w3.org/1999/02/22-rdf-syntax-ns#"
   xmlns:svg="http://www.w3.org/2000/svg"
   xmlns="http://www.w3.org/2000/svg"
   xmlns:xlink="http://www.w3.org/1999/xlink"
   xmlns:sodipodi="http://sodipodi.sourceforge.net/DTD/sodipodi-0.dtd"
   xmlns:inkscape="http://www.inkscape.org/namespaces/inkscape"
   version="1.1"
   id="svg16989"
   width="11366.4"
   height="11232"
   viewBox="0 0 11366.4 11232"
   sodipodi:docname="10ribb5x.svg"
   inkscape:version="0.92.5 (2060ec1f9f, 2020-04-08)">
  <metadata
     id="metadata16995">
    <rdf:RDF>
      <cc:Work
         rdf:about="">
        <dc:format>image/svg+xml</dc:format>
        <dc:type
           rdf:resource="http://purl.org/dc/dcmitype/StillImage" />
        <dc:title />
      </cc:Work>
    </rdf:RDF>
  </metadata>
  <defs
     id="defs16993">
    <inkscape:path-effect
       effect="interpolate_points"
       id="path-effect17544"
       is_visible="true"
       interpolator_type="CentripetalCatmullRom" />
  </defs>
  <sodipodi:namedview
     pagecolor="#ffffff"
     bordercolor="#666666"
     borderopacity="1"
     objecttolerance="10"
     gridtolerance="10"
     guidetolerance="10"
     inkscape:pageopacity="0"
     inkscape:pageshadow="2"
     inkscape:window-width="2560"
     inkscape:window-height="1376"
     id="namedview16991"
     showgrid="false"
     inkscape:zoom="0.16809117"
     inkscape:cx="4395.6287"
     inkscape:cy="6020.899"
     inkscape:window-x="0"
     inkscape:window-y="27"
     inkscape:window-maximized="1"
     inkscape:current-layer="svg16989" />
  <image
     sodipodi:absref="/home/raniere/Documents/microradiography-faxitron/data-raw/left-10th-rib/10ribb5x.tif"
     xlink:href="10ribb5x.tif"
     width="11366.4"
     height="11232"
     preserveAspectRatio="none"
     id="image16997"
     x="0"
     y="0" />
  <path
     style="fill:#000000;stroke:none;stroke-width:1px;stroke-linecap:butt;stroke-linejoin:miter;stroke-opacity:1"
     d="m 2088.1526,4003.7797 c 94.1949,-16.8559 311.7742,-78.9711 565.1694,-101.1356 508.0786,-44.4416 1679.3732,-26.9013 2308.2712,5.9491 436.5632,22.8038 682.5335,45.8973 1106.5424,113.0339 585.0734,92.6391 1420.0839,175.9577 2070.3051,446.1864 668.8414,277.9672 1475.733,789.8304 1879.9323,1219.5763 276.98,294.486 378.291,598.666 517.576,916.1695 137.492,313.4165 332.849,702.6472 315.305,975.661 -13.257,206.3014 -52.333,393.521 -249.864,529.4746 -485.58,334.2078 -2547.4393,289.9586 -3527.8476,267.7119 C 6370.0012,8360.4426 5713.34,8252.6636 5265,8156.2881 4991.2409,8097.4406 4866.7875,8070.2045 4616.5424,7954.0169 4217.4195,7768.7061 3490.6921,7303.0254 3159,7025.9492 2957.148,6857.3338 2866.7414,6722.4067 2724.7119,6555.9661 2574.9262,6380.4362 2427.1538,6220.5524 2284.4746,5996.7457 2101.2791,5709.3852 1865.2213,5214.0953 1755,4949.6949 c -63.9582,-153.4238 -124.9322,-258.3447 -124.9322,-374.7966 0,-101.6476 34.0038,-198.5638 95.1864,-285.5593 75.7805,-107.7522 302.4153,-237.9661 362.8984,-285.5593"
     id="path17542"
     inkscape:connector-curvature="0"
     sodipodi:nodetypes="ccccccccccccccccccc"
     inkscape:path-effect="#path-effect17544"
     inkscape:original-d="m 2088.1526,4003.7797 565.1694,-101.1356 2308.2712,5.9491 1106.5424,113.0339 2070.3051,446.1864 c 663.7256,354.3363 1276.9835,773.9186 1879.9323,1219.5763 l 517.576,916.1695 315.305,975.661 -249.864,529.4746 C 9435.1836,8313.6938 8253.225,8325.6677 7073.5424,8376.4068 6471.1819,8299.0298 5868.0427,8228.0789 5265,8156.2881 L 4616.5424,7954.0169 C 4177.8504,7589.3655 3646.8566,7316.9514 3159,7025.9492 L 2724.7119,6555.9661 2284.4746,5996.7457 1755,4949.6949 1630.0678,4574.8983 1725.2542,4289.339 Z" />
</svg>
