<?xml version="1.0" encoding="UTF-8" standalone="no"?>
<!-- Created with Inkscape (http://www.inkscape.org/) -->

<svg
   xmlns:dc="http://purl.org/dc/elements/1.1/"
   xmlns:cc="http://creativecommons.org/ns#"
   xmlns:rdf="http://www.w3.org/1999/02/22-rdf-syntax-ns#"
   xmlns:svg="http://www.w3.org/2000/svg"
   xmlns="http://www.w3.org/2000/svg"
   xmlns:xlink="http://www.w3.org/1999/xlink"
   xmlns:sodipodi="http://sodipodi.sourceforge.net/DTD/sodipodi-0.dtd"
   xmlns:inkscape="http://www.inkscape.org/namespaces/inkscape"
   version="1.1"
   id="svg12565"
   width="11366.4"
   height="11232"
   viewBox="0 0 11366.4 11232"
   sodipodi:docname="12ribb5x.svg"
   inkscape:version="0.92.5 (2060ec1f9f, 2020-04-08)">
  <metadata
     id="metadata12571">
    <rdf:RDF>
      <cc:Work
         rdf:about="">
        <dc:format>image/svg+xml</dc:format>
        <dc:type
           rdf:resource="http://purl.org/dc/dcmitype/StillImage" />
        <dc:title />
      </cc:Work>
    </rdf:RDF>
  </metadata>
  <defs
     id="defs12569" />
  <sodipodi:namedview
     pagecolor="#ffffff"
     bordercolor="#666666"
     borderopacity="1"
     objecttolerance="10"
     gridtolerance="10"
     guidetolerance="10"
     inkscape:pageopacity="0"
     inkscape:pageshadow="2"
     inkscape:window-width="2560"
     inkscape:window-height="1376"
     id="namedview12567"
     showgrid="false"
     inkscape:zoom="0.16809117"
     inkscape:cx="4815.5647"
     inkscape:cy="6112.8637"
     inkscape:window-x="0"
     inkscape:window-y="27"
     inkscape:window-maximized="1"
     inkscape:current-layer="svg12565" />
  <image
     sodipodi:absref="/home/raniere/Documents/microradiography-faxitron/data-raw/left-10th-rib/12ribb5x.tif"
     xlink:href="12ribb5x.tif"
     width="11366.4"
     height="11232"
     preserveAspectRatio="none"
     id="image12573"
     x="0"
     y="0" />
  <path
     style="fill:#000000;stroke:none;stroke-width:1px;stroke-linecap:butt;stroke-linejoin:miter;stroke-opacity:1"
     d="m 6056.2373,3498.1017 452.1356,107.0847 523.5254,220.1187 404.5424,255.8135 c 370.9719,263.922 671.7577,597.8488 797.1864,969.7119 125.2676,248.7401 207.9487,505.0645 273.661,773.3898 l 53.5424,273.661 -41.644,243.9153 -166.5763,291.5085 -249.8644,267.7118 -243.9153,243.9153 -291.5085,237.9661 -333.1525,232.0169 -351,160.6272 c -304.6424,63.9741 -601.9581,150.3267 -898.322,243.9152 l -594.9153,124.9322 h -469.983 c -292.3439,30.1333 -583.2408,68.5324 -874.5255,107.0848 l -356.9491,11.8983 -469.9831,-154.678 -416.4406,-166.5763 C 2557.3493,7804.0611 2305.022,7683.9409 2052.4576,7561.3729 L 1755,7353.1525 C 1484.1844,7089.6503 1287.3011,6771.5244 1076.7966,6460.7797 L 797.18644,6074.0847 702,5604.1017 678.20339,5211.4576 809.08475,4866.4068 c 146.98091,-329.5717 385.99155,-383.7374 701.99995,-517.5763 l 392.6441,-160.6271 719.8475,-285.5593 559.2203,-190.3729 749.5932,-166.5763 606.8136,-101.1356 749.5932,-41.6441 z"
     id="path24517"
     inkscape:connector-curvature="0"
     sodipodi:nodetypes="cccccccccccccccccccccccccccccccccccc" />
</svg>
