ID Number,Flip horizontally,Flip vertically,Rotate anticlockwise
01,TRUE,FALSE,-83
02,FALSE,FALSE,-126
03,TRUE,TRUE,-54
04,FALSE,FALSE,-126
05,TRUE,FALSE,-66
06,TRUE,FALSE,-66
07,FALSE,TRUE,-90
08,TRUE,TRUE,-90
09,FALSE,FALSE,-90
10,FALSE,FALSE,-72
11,FALSE,TRUE,-90
12,FALSE,FALSE,-90
