<?xml version="1.0" encoding="UTF-8" standalone="no"?>
<!-- Created with Inkscape (http://www.inkscape.org/) -->

<svg
   xmlns:dc="http://purl.org/dc/elements/1.1/"
   xmlns:cc="http://creativecommons.org/ns#"
   xmlns:rdf="http://www.w3.org/1999/02/22-rdf-syntax-ns#"
   xmlns:svg="http://www.w3.org/2000/svg"
   xmlns="http://www.w3.org/2000/svg"
   xmlns:xlink="http://www.w3.org/1999/xlink"
   xmlns:sodipodi="http://sodipodi.sourceforge.net/DTD/sodipodi-0.dtd"
   xmlns:inkscape="http://www.inkscape.org/namespaces/inkscape"
   version="1.1"
   id="svg36339"
   width="11366.4"
   height="11232"
   viewBox="0 0 11366.4 11232"
   sodipodi:docname="05mc3sb2x.svg"
   inkscape:version="0.92.5 (2060ec1f9f, 2020-04-08)">
  <metadata
     id="metadata36345">
    <rdf:RDF>
      <cc:Work
         rdf:about="">
        <dc:format>image/svg+xml</dc:format>
        <dc:type
           rdf:resource="http://purl.org/dc/dcmitype/StillImage" />
        <dc:title></dc:title>
      </cc:Work>
    </rdf:RDF>
  </metadata>
  <defs
     id="defs36343">
    <inkscape:path-effect
       effect="interpolate_points"
       id="path-effect39830"
       is_visible="true"
       interpolator_type="CubicBezierFit" />
  </defs>
  <sodipodi:namedview
     pagecolor="#ffffff"
     bordercolor="#666666"
     borderopacity="1"
     objecttolerance="10"
     gridtolerance="10"
     guidetolerance="10"
     inkscape:pageopacity="0"
     inkscape:pageshadow="2"
     inkscape:window-width="2560"
     inkscape:window-height="1376"
     id="namedview36341"
     showgrid="false"
     inkscape:zoom="0.16809117"
     inkscape:cx="7039.0209"
     inkscape:cy="4979.3694"
     inkscape:window-x="0"
     inkscape:window-y="27"
     inkscape:window-maximized="1"
     inkscape:current-layer="svg36339" />
  <image
     sodipodi:absref="/home/raniere/Documents/microradiography-faxitron/data-raw/right-metacarpal-3-mid-diaphyseal/05mc3sb2x.tif"
     xlink:href="05mc3sb2x.tif"
     y="0"
     x="0"
     id="image36347"
     preserveAspectRatio="none"
     height="11232"
     width="11366.4" />
  <path
     style="fill:#000000;stroke:none;stroke-width:1px;stroke-linecap:butt;stroke-linejoin:miter;stroke-opacity:1"
     d="m 5443.4746,3920.4915 c 416.9913,-3.7566 674.3451,-43.6949 1058.9491,59.4915 115.2377,30.9174 226.4357,77.5229 333.1526,130.8814 116.2007,58.1003 245.9112,106.0049 333.1525,202.2712 262.6033,289.7692 499.8953,605.182 702,939.9661 9.2592,15.3377 146.9099,684.3067 148.7288,702 41.5828,404.4872 -92.431,521.9232 -374.7966,916.1695 -292.8493,408.8839 -808.5439,464.2698 -1273.1186,577.0678 -140.8866,34.207 -289.3266,26.0976 -434.2882,23.7966 -104.4693,-1.6582 -890.5624,-33.4221 -1094.644,-107.0847 -210.2129,-75.8757 -411.5679,-178.6578 -600.8644,-297.4577 -101.0178,-63.3974 -180.3869,-156.7269 -261.7627,-243.9152 -107.0766,-114.7249 -244.6559,-327.4186 -297.4576,-469.9831 -44.7682,-120.8742 -92.2355,-245.9321 -95.1866,-374.7966 -3.1432,-137.2536 37.0197,-273.3067 77.3391,-404.5423 62.7271,-204.1706 234.8447,-682.6735 410.4915,-886.4238 73.611,-85.3887 169.2821,-149.6936 261.7627,-214.1695 625.5563,-436.1273 454.1606,-330.8683 1106.5424,-553.2712"
     id="path39828"
     inkscape:connector-curvature="0"
     sodipodi:nodetypes="cccccccccccccccccccccccccc"
     inkscape:path-effect="#path-effect39830"
     inkscape:original-d="m 5443.4746,3920.4915 660.3559,-5.9491 398.5932,65.4406 333.1526,130.8814 333.1525,202.2712 c 294.2107,279.8187 521.8736,579.7132 702,939.9661 l 77.339,351 71.3898,351 -5.9491,285.5593 c -74.7573,243.387 -219.5594,430.2498 -368.8475,630.6102 l -261.7627,249.8644 c -319.6107,172.1824 -661.9215,245.6687 -1011.3559,327.2034 l -434.2882,23.7966 c -229.1962,6.1448 -458.4792,-41.6441 -690.1016,-41.644 l -404.5424,-65.4407 c -215.2628,-71.651 -406.6844,-183.4825 -600.8644,-297.4577 l -261.7627,-243.9152 -154.678,-202.2712 -142.7796,-267.7119 -95.1866,-374.7966 77.3391,-404.5423 c 79.9895,-192.6903 152.834,-387.727 226.0678,-583.017 l 184.4237,-303.4068 261.7627,-214.1695 c 191.0071,-130.8011 386.3124,-253.0271 583.017,-374.7966 178.3201,-49.8338 352.3453,-108.7345 523.5254,-178.4746 z" />
</svg>
