<?xml version="1.0" encoding="UTF-8" standalone="no"?>
<!-- Created with Inkscape (http://www.inkscape.org/) -->

<svg
   xmlns:dc="http://purl.org/dc/elements/1.1/"
   xmlns:cc="http://creativecommons.org/ns#"
   xmlns:rdf="http://www.w3.org/1999/02/22-rdf-syntax-ns#"
   xmlns:svg="http://www.w3.org/2000/svg"
   xmlns="http://www.w3.org/2000/svg"
   xmlns:xlink="http://www.w3.org/1999/xlink"
   xmlns:sodipodi="http://sodipodi.sourceforge.net/DTD/sodipodi-0.dtd"
   xmlns:inkscape="http://www.inkscape.org/namespaces/inkscape"
   version="1.1"
   id="svg44083"
   width="11366.4"
   height="11232"
   viewBox="0 0 11366.4 11232"
   sodipodi:docname="03tibc2x.svg"
   inkscape:version="0.92.5 (2060ec1f9f, 2020-04-08)">
  <metadata
     id="metadata44089">
    <rdf:RDF>
      <cc:Work
         rdf:about="">
        <dc:format>image/svg+xml</dc:format>
        <dc:type
           rdf:resource="http://purl.org/dc/dcmitype/StillImage" />
        <dc:title></dc:title>
      </cc:Work>
    </rdf:RDF>
  </metadata>
  <defs
     id="defs44087">
    <inkscape:path-effect
       effect="interpolate_points"
       id="path-effect46366"
       is_visible="true"
       interpolator_type="CubicBezierFit" />
  </defs>
  <sodipodi:namedview
     pagecolor="#ffffff"
     bordercolor="#666666"
     borderopacity="1"
     objecttolerance="10"
     gridtolerance="10"
     guidetolerance="10"
     inkscape:pageopacity="0"
     inkscape:pageshadow="2"
     inkscape:window-width="2560"
     inkscape:window-height="1376"
     id="namedview44085"
     showgrid="false"
     inkscape:zoom="0.16809117"
     inkscape:cx="5738.7637"
     inkscape:cy="5980.5907"
     inkscape:window-x="0"
     inkscape:window-y="27"
     inkscape:window-maximized="1"
     inkscape:current-layer="svg44083" />
  <image
     sodipodi:absref="/home/raniere/Documents/microradiography-faxitron/data-raw/left-tibia-distal-third/03tibc2x.tif"
     xlink:href="03tibc2x.tif"
     y="0"
     x="0"
     id="image44091"
     preserveAspectRatio="none"
     height="11232"
     width="11366.4" />
  <path
     style="fill:#000000;stroke:none;stroke-width:1px;stroke-linecap:butt;stroke-linejoin:miter;stroke-opacity:1"
     d="m 6930.7627,2849.6441 c 212.1864,53.5424 427.2177,96.8622 636.5593,160.6271 265.4698,80.8615 575.7091,228.9368 809.0848,374.7966 122.77,76.7313 242.9901,159.408 351,255.8135 250.1426,223.2677 505.3385,529.3603 672.2542,820.9831 85.5213,149.4165 147.8112,311.1253 214.1695,469.983 64.5915,154.6281 129.8148,309.6268 178.4746,469.9831 76.1861,251.0678 108.7148,555.5554 124.9322,815.0339 26.6843,426.9481 51.4934,575.9504 -77.339,975.661 -31.287,97.0699 -75.383,192.263 -136.8305,273.661 -160.8032,213.012 -400.7602,428.9917 -648.4576,541.3729 -148.0333,67.1632 -435.0927,109.8631 -600.8644,107.0848 -614.9792,-10.3069 -1230.8157,-14.5523 -1844.2373,-59.4916 -1464.6877,-107.3031 -2126.0212,-333.5683 -3658.7288,-797.1864 -292.4849,-88.4717 -900.5847,-492.6917 -1053,-624.661 -126.2336,-109.2998 -213.7609,-257.721 -303.4068,-398.5932 -96.742,-152.0231 -153.4399,-364.0308 -166.5763,-541.3729 -8.7907,-118.6745 -15.7194,-239.939 5.9492,-356.9492 73.0099,-394.2531 139.7185,-633.8267 380.7457,-928.0678 159.61,-194.8487 487.0982,-426.1816 690.1017,-529.4746 518.7048,-263.9292 1047.374,-508.8266 1582.4746,-737.6949 27.6176,-11.8123 746.1304,-200.7548 779.339,-208.2203 125.9827,-28.3217 253.7647,-47.9471 380.7458,-71.3898 388.3704,-71.6992 395.5546,-85.051 791.2372,-101.1356 110.9592,-4.5105 222.6529,-11.05 333.1526,0 187.8284,18.7828 372.8135,59.4915 559.2203,89.2373"
     id="path46364"
     inkscape:connector-curvature="0"
     inkscape:path-effect="#path-effect46366"
     inkscape:original-d="m 6930.7627,2849.6441 636.5593,160.6271 398.5933,154.6779 410.4915,220.1187 351,255.8135 368.8475,386.695 303.4067,434.2881 214.1695,469.983 178.4746,469.9831 83.2881,392.6441 41.6441,422.3898 17.8475,529.4746 -95.1865,446.1864 -136.8305,273.661 -321.2542,333.1526 -327.2034,208.2203 -315.3051,83.2882 -285.5593,23.7966 c -614.879,-13.3175 -1229.5646,-38.4572 -1844.2373,-59.4916 l -1404,-178.4745 -2254.7288,-618.7119 -380.7458,-178.4746 c -224.6101,-147.939 -448.4731,-296.999 -672.2542,-446.1864 l -303.4068,-398.5932 -113.0339,-255.8136 -53.5424,-285.5593 5.9492,-356.9492 172.5254,-606.8135 208.2203,-321.2543 249.8644,-237.9661 440.2373,-291.5085 c 523.5872,-272.0522 1101.1047,-550.4328 1582.4746,-737.6949 l 392.6441,-107.0847 386.6949,-101.1356 380.7458,-71.3898 392.644,-71.3899 398.5932,-29.7457 h 333.1526 z"
     sodipodi:nodetypes="ccccccccccccccccccccccccccccccccccccccc" />
</svg>
