<?xml version="1.0" encoding="UTF-8" standalone="no"?>
<svg
   xmlns:dc="http://purl.org/dc/elements/1.1/"
   xmlns:cc="http://creativecommons.org/ns#"
   xmlns:rdf="http://www.w3.org/1999/02/22-rdf-syntax-ns#"
   xmlns:svg="http://www.w3.org/2000/svg"
   xmlns="http://www.w3.org/2000/svg"
   xmlns:xlink="http://www.w3.org/1999/xlink"
   xmlns:sodipodi="http://sodipodi.sourceforge.net/DTD/sodipodi-0.dtd"
   xmlns:inkscape="http://www.inkscape.org/namespaces/inkscape"
   width="333.52271mm"
   height="219.96101mm"
   viewBox="0 0 333.52271 219.96101"
   version="1.1"
   id="svg8"
   inkscape:version="1.0.1 (3bc2e813f5, 2020-09-07)"
   sodipodi:docname="center-of-mass.svg">
  <defs
     id="defs2">
    <marker
       style="overflow:visible"
       id="marker1845"
       refX="0"
       refY="0"
       orient="auto"
       inkscape:stockid="Arrow1Send"
       inkscape:isstock="true">
      <path
         transform="matrix(-0.2,0,0,-0.2,-1.2,0)"
         style="fill:#000000;fill-opacity:0;fill-rule:evenodd;stroke:#000000;stroke-width:1pt;stroke-opacity:1"
         d="M 0,0 5,-5 -12.5,0 5,5 Z"
         id="path1843" />
    </marker>
    <marker
       style="overflow:visible"
       id="marker1835"
       refX="0"
       refY="0"
       orient="auto"
       inkscape:stockid="Arrow1Send"
       inkscape:isstock="true">
      <path
         transform="matrix(-0.2,0,0,-0.2,-1.2,0)"
         style="fill:#000000;fill-opacity:0;fill-rule:evenodd;stroke:#000000;stroke-width:1pt;stroke-opacity:1"
         d="M 0,0 5,-5 -12.5,0 5,5 Z"
         id="path1833" />
    </marker>
    <marker
       style="overflow:visible"
       id="marker1727"
       refX="0"
       refY="0"
       orient="auto"
       inkscape:stockid="Arrow1Send"
       inkscape:isstock="true"
       inkscape:collect="always">
      <path
         transform="matrix(-0.2,0,0,-0.2,-1.2,0)"
         style="fill:#000000;fill-opacity:0;fill-rule:evenodd;stroke:#000000;stroke-width:1pt;stroke-opacity:1"
         d="M 0,0 5,-5 -12.5,0 5,5 Z"
         id="path1725" />
    </marker>
    <marker
       style="overflow:visible"
       id="marker1717"
       refX="0"
       refY="0"
       orient="auto"
       inkscape:stockid="Arrow1Send"
       inkscape:isstock="true"
       inkscape:collect="always">
      <path
         transform="matrix(-0.2,0,0,-0.2,-1.2,0)"
         style="fill:#000000;fill-opacity:0;fill-rule:evenodd;stroke:#000000;stroke-width:1pt;stroke-opacity:1"
         d="M 0,0 5,-5 -12.5,0 5,5 Z"
         id="path1715" />
    </marker>
    <marker
       style="overflow:visible"
       id="marker1625"
       refX="0"
       refY="0"
       orient="auto"
       inkscape:stockid="Arrow1Send"
       inkscape:isstock="true"
       inkscape:collect="always">
      <path
         transform="matrix(-0.2,0,0,-0.2,-1.2,0)"
         style="fill:#000000;fill-opacity:0;fill-rule:evenodd;stroke:#000000;stroke-width:1pt;stroke-opacity:1"
         d="M 0,0 5,-5 -12.5,0 5,5 Z"
         id="path1623" />
    </marker>
    <marker
       style="overflow:visible"
       id="marker1615"
       refX="0"
       refY="0"
       orient="auto"
       inkscape:stockid="Arrow1Send"
       inkscape:isstock="true"
       inkscape:collect="always">
      <path
         transform="matrix(-0.2,0,0,-0.2,-1.2,0)"
         style="fill:#000000;fill-opacity:0;fill-rule:evenodd;stroke:#000000;stroke-width:1pt;stroke-opacity:1"
         d="M 0,0 5,-5 -12.5,0 5,5 Z"
         id="path1613" />
    </marker>
    <marker
       style="overflow:visible"
       id="marker1539"
       refX="0"
       refY="0"
       orient="auto"
       inkscape:stockid="Arrow1Send"
       inkscape:isstock="true"
       inkscape:collect="always">
      <path
         transform="matrix(-0.2,0,0,-0.2,-1.2,0)"
         style="fill:#000000;fill-opacity:0;fill-rule:evenodd;stroke:#000000;stroke-width:1pt;stroke-opacity:1"
         d="M 0,0 5,-5 -12.5,0 5,5 Z"
         id="path1537" />
    </marker>
    <marker
       style="overflow:visible"
       id="marker1529"
       refX="0"
       refY="0"
       orient="auto"
       inkscape:stockid="Arrow1Send"
       inkscape:isstock="true"
       inkscape:collect="always">
      <path
         transform="matrix(-0.2,0,0,-0.2,-1.2,0)"
         style="fill:#000000;fill-opacity:0;fill-rule:evenodd;stroke:#000000;stroke-width:1pt;stroke-opacity:1"
         d="M 0,0 5,-5 -12.5,0 5,5 Z"
         id="path1527" />
    </marker>
    <marker
       style="overflow:visible"
       id="marker1457"
       refX="0"
       refY="0"
       orient="auto"
       inkscape:stockid="Arrow1Send"
       inkscape:isstock="true"
       inkscape:collect="always">
      <path
         transform="matrix(-0.2,0,0,-0.2,-1.2,0)"
         style="fill:#000000;fill-opacity:0;fill-rule:evenodd;stroke:#000000;stroke-width:1pt;stroke-opacity:1"
         d="M 0,0 5,-5 -12.5,0 5,5 Z"
         id="path1455" />
    </marker>
    <marker
       style="overflow:visible"
       id="Arrow1Send"
       refX="0"
       refY="0"
       orient="auto"
       inkscape:stockid="Arrow1Send"
       inkscape:isstock="true"
       inkscape:collect="always">
      <path
         transform="matrix(-0.2,0,0,-0.2,-1.2,0)"
         style="fill:#000000;fill-opacity:0;fill-rule:evenodd;stroke:#000000;stroke-width:1pt;stroke-opacity:1"
         d="M 0,0 5,-5 -12.5,0 5,5 Z"
         id="path1180" />
    </marker>
  </defs>
  <sodipodi:namedview
     id="base"
     pagecolor="#ffffff"
     bordercolor="#666666"
     borderopacity="1.0"
     inkscape:pageopacity="0.0"
     inkscape:pageshadow="2"
     inkscape:zoom="0.98994949"
     inkscape:cx="588.95053"
     inkscape:cy="385.83762"
     inkscape:document-units="mm"
     inkscape:current-layer="layer1"
     inkscape:document-rotation="0"
     showgrid="true"
     inkscape:window-width="2560"
     inkscape:window-height="1376"
     inkscape:window-x="0"
     inkscape:window-y="27"
     inkscape:window-maximized="1"
     fit-margin-top="0"
     fit-margin-left="0"
     fit-margin-right="0"
     fit-margin-bottom="0">
    <inkscape:grid
       type="xygrid"
       id="grid833"
       units="mm"
       spacingx="2"
       spacingy="2"
       originx="2.8421711e-14"
       originy="29.961001" />
  </sodipodi:namedview>
  <metadata
     id="metadata5">
    <rdf:RDF>
      <cc:Work
         rdf:about="">
        <dc:format>image/svg+xml</dc:format>
        <dc:type
           rdf:resource="http://purl.org/dc/dcmitype/StillImage" />
        <dc:title></dc:title>
      </cc:Work>
    </rdf:RDF>
  </metadata>
  <g
     inkscape:label="Layer 1"
     inkscape:groupmode="layer"
     id="layer1"
     transform="translate(0,29.961001)">
    <image
       sodipodi:absref="/home/raniere/Documents/microradiography-faxitron/img/left-10th-rib/10-center-of-mass.png"
       xlink:href="left-10th-rib/10-center-of-mass.png"
       style="stroke-width:1.65269"
       y="140.5123"
       x="0"
       id="image913"
       preserveAspectRatio="none"
       height="49.487709"
       width="50" />
    <image
       sodipodi:absref="/home/raniere/Documents/microradiography-faxitron/data-augmented/left-10th-rib/10.png"
       xlink:href="../data-augmented/left-10th-rib/10.png"
       style="stroke-width:12.5307"
       y="-1.4210855e-14"
       x="-1.4210855e-14"
       id="image1061"
       preserveAspectRatio="none"
       height="49.408783"
       width="49.999996" />
    <image
       sodipodi:absref="/home/raniere/Documents/microradiography-faxitron/data-raw/left-10th-rib/10ribb5x.mask.for.roi.png"
       xlink:href="../data-raw/left-10th-rib/10ribb5x.mask.for.roi.png"
       style="stroke-width:60.1472"
       y="70"
       x="0"
       id="image1159"
       preserveAspectRatio="none"
       height="49.408791"
       width="50.000008" />
    <path
       style="opacity:1;vector-effect:none;fill:#000000;fill-opacity:0;stroke:#000000;stroke-width:1;stroke-linecap:butt;stroke-linejoin:miter;stroke-miterlimit:4;stroke-dasharray:none;stroke-dashoffset:0;stroke-opacity:1;marker-end:url(#Arrow1Send)"
       d="M 24.999998,54 V 66"
       id="path1163"
       sodipodi:nodetypes="cc" />
    <path
       style="opacity:1;vector-effect:none;fill:#000000;fill-opacity:0;stroke:#000000;stroke-width:1;stroke-linecap:butt;stroke-linejoin:miter;stroke-miterlimit:4;stroke-dasharray:none;stroke-dashoffset:0;stroke-opacity:1;marker-end:url(#marker1457)"
       d="m 25.000004,124 v 12.00001"
       id="path1453"
       sodipodi:nodetypes="cc" />
    <image
       sodipodi:absref="/home/raniere/Documents/microradiography-faxitron/img/left-tibia-distal-third/10-center-of-mass.png"
       xlink:href="left-tibia-distal-third/10-center-of-mass.png"
       style="stroke-width:1.65269"
       y="140.51222"
       x="70"
       id="image1517"
       preserveAspectRatio="none"
       height="49.487709"
       width="50" />
    <image
       sodipodi:absref="/home/raniere/Documents/microradiography-faxitron/data-augmented/left-tibia-distal-third/10.png"
       xlink:href="../data-augmented/left-tibia-distal-third/10.png"
       style="stroke-width:12.5307"
       y="-6.9663736e-05"
       x="70"
       id="image1519"
       preserveAspectRatio="none"
       height="49.408783"
       width="49.999996" />
    <image
       sodipodi:absref="/home/raniere/Documents/microradiography-faxitron/data-raw/left-tibia-distal-third/10tiba2x.mask.for.roi.png"
       xlink:href="../data-raw/left-tibia-distal-third/10tiba2x.mask.for.roi.png"
       style="stroke-width:60.1472;fill:#ffff00"
       y="69.999931"
       x="70"
       id="image1521"
       preserveAspectRatio="none"
       height="49.408791"
       width="50.000008" />
    <path
       style="opacity:1;vector-effect:none;fill:#000000;fill-opacity:0;stroke:#000000;stroke-width:1;stroke-linecap:butt;stroke-linejoin:miter;stroke-miterlimit:4;stroke-dasharray:none;stroke-dashoffset:0;stroke-opacity:1;marker-end:url(#marker1539)"
       d="m 94.999998,53.99993 v 12"
       id="path1523"
       sodipodi:nodetypes="cc" />
    <path
       style="opacity:1;vector-effect:none;fill:#000000;fill-opacity:0;stroke:#000000;stroke-width:1;stroke-linecap:butt;stroke-linejoin:miter;stroke-miterlimit:4;stroke-dasharray:none;stroke-dashoffset:0;stroke-opacity:1;marker-end:url(#marker1529)"
       d="m 95.000004,123.99993 v 12.00001"
       id="path1525"
       sodipodi:nodetypes="cc" />
    <image
       sodipodi:absref="/home/raniere/Documents/microradiography-faxitron/img/right-metacarpal-3-mid-diaphyseal/10-center-of-mass.png"
       xlink:href="right-metacarpal-3-mid-diaphyseal/10-center-of-mass.png"
       style="stroke-width:1.65269"
       y="140.51222"
       x="140"
       id="image1603"
       preserveAspectRatio="none"
       height="49.487709"
       width="50" />
    <image
       sodipodi:absref="/home/raniere/Documents/microradiography-faxitron/data-augmented/right-metacarpal-3-mid-diaphyseal/10.png"
       xlink:href="../data-augmented/right-metacarpal-3-mid-diaphyseal/10.png"
       style="stroke-width:12.5307"
       y="-6.9663736e-05"
       x="140"
       id="image1605"
       preserveAspectRatio="none"
       height="49.408783"
       width="49.999996" />
    <image
       sodipodi:absref="/home/raniere/Documents/microradiography-faxitron/data-raw/right-metacarpal-3-mid-diaphyseal/10mc3sc2x.mask.for.roi.png"
       xlink:href="../data-raw/right-metacarpal-3-mid-diaphyseal/10mc3sc2x.mask.for.roi.png"
       style="stroke-width:60.1472"
       y="69.999931"
       x="140"
       id="image1607"
       preserveAspectRatio="none"
       height="49.408791"
       width="50.000008" />
    <path
       style="opacity:1;vector-effect:none;fill:#000000;fill-opacity:0;stroke:#000000;stroke-width:1;stroke-linecap:butt;stroke-linejoin:miter;stroke-miterlimit:4;stroke-dasharray:none;stroke-dashoffset:0;stroke-opacity:1;marker-end:url(#marker1625)"
       d="m 164.99999,53.99993 v 12"
       id="path1609"
       sodipodi:nodetypes="cc" />
    <path
       style="opacity:1;vector-effect:none;fill:#000000;fill-opacity:0;stroke:#000000;stroke-width:1;stroke-linecap:butt;stroke-linejoin:miter;stroke-miterlimit:4;stroke-dasharray:none;stroke-dashoffset:0;stroke-opacity:1;marker-end:url(#marker1615)"
       d="m 165,123.99993 v 12.00001"
       id="path1611"
       sodipodi:nodetypes="cc" />
    <image
       sodipodi:absref="/home/raniere/Documents/microradiography-faxitron/img/left-proximal-humerus-proximal-to-deltoid-tuberosity/10-center-of-mass.png"
       xlink:href="left-proximal-humerus-proximal-to-deltoid-tuberosity/10-center-of-mass.png"
       style="stroke-width:1.65269"
       y="140.51222"
       x="210"
       id="image1705"
       preserveAspectRatio="none"
       height="49.487709"
       width="50" />
    <image
       sodipodi:absref="/home/raniere/Documents/microradiography-faxitron/data-augmented/left-proximal-humerus-proximal-to-deltoid-tuberosity/10.png"
       xlink:href="../data-augmented/left-proximal-humerus-proximal-to-deltoid-tuberosity/10.png"
       style="stroke-width:12.5307"
       y="-6.9663736e-05"
       x="210"
       id="image1707"
       preserveAspectRatio="none"
       height="49.408783"
       width="49.999996" />
    <image
       sodipodi:absref="/home/raniere/Documents/microradiography-faxitron/data-raw/left-proximal-humerus-proximal-to-deltoid-tuberosity/10huma3x.mask.for.roi.png"
       xlink:href="../data-raw/left-proximal-humerus-proximal-to-deltoid-tuberosity/10huma3x.mask.for.roi.png"
       style="stroke-width:60.1472"
       y="69.999931"
       x="210"
       id="image1709"
       preserveAspectRatio="none"
       height="49.408791"
       width="50.000008" />
    <path
       style="opacity:1;vector-effect:none;fill:#000000;fill-opacity:0;stroke:#000000;stroke-width:1;stroke-linecap:butt;stroke-linejoin:miter;stroke-miterlimit:4;stroke-dasharray:none;stroke-dashoffset:0;stroke-opacity:1;marker-end:url(#marker1727)"
       d="m 234.99999,53.99993 v 12"
       id="path1711"
       sodipodi:nodetypes="cc" />
    <path
       style="opacity:1;vector-effect:none;fill:#000000;fill-opacity:0;stroke:#000000;stroke-width:1;stroke-linecap:butt;stroke-linejoin:miter;stroke-miterlimit:4;stroke-dasharray:none;stroke-dashoffset:0;stroke-opacity:1;marker-end:url(#marker1717)"
       d="m 235,123.99993 v 12.00001"
       id="path1713"
       sodipodi:nodetypes="cc" />
    <image
       sodipodi:absref="/home/raniere/Documents/microradiography-faxitron/img/right-metacarpal-3-distal-diaphysis-lateral-aspect/10-center-of-mass.png"
       xlink:href="right-metacarpal-3-distal-diaphysis-lateral-aspect/10-center-of-mass.png"
       style="stroke-width:1.65269"
       y="140.51222"
       x="280"
       id="image1823"
       preserveAspectRatio="none"
       height="49.487709"
       width="50" />
    <image
       sodipodi:absref="/home/raniere/Documents/microradiography-faxitron/data-augmented/right-metacarpal-3-distal-diaphysis-lateral-aspect/10.png"
       xlink:href="../data-augmented/right-metacarpal-3-distal-diaphysis-lateral-aspect/10.png"
       style="stroke-width:12.5307"
       y="-6.9663736e-05"
       x="280"
       id="image1825"
       preserveAspectRatio="none"
       height="49.408783"
       width="49.999996" />
    <image
       sodipodi:absref="/home/raniere/Documents/microradiography-faxitron/data-raw/right-metacarpal-3-distal-diaphysis-lateral-aspect/10mc3da3x.mask.for.roi.png"
       xlink:href="../data-raw/right-metacarpal-3-distal-diaphysis-lateral-aspect/10mc3da3x.mask.for.roi.png"
       style="stroke-width:60.1472"
       y="69.999931"
       x="280"
       id="image1827"
       preserveAspectRatio="none"
       height="49.408791"
       width="50.000008" />
    <path
       style="opacity:1;vector-effect:none;fill:#000000;fill-opacity:0;stroke:#000000;stroke-width:1;stroke-linecap:butt;stroke-linejoin:miter;stroke-miterlimit:4;stroke-dasharray:none;stroke-dashoffset:0;stroke-opacity:1;marker-end:url(#marker1845)"
       d="m 304.99999,53.99993 v 12"
       id="path1829"
       sodipodi:nodetypes="cc" />
    <path
       style="opacity:1;vector-effect:none;fill:#000000;fill-opacity:0;stroke:#000000;stroke-width:1;stroke-linecap:butt;stroke-linejoin:miter;stroke-miterlimit:4;stroke-dasharray:none;stroke-dashoffset:0;stroke-opacity:1;marker-end:url(#marker1835)"
       d="m 305,123.99993 v 12.00001"
       id="path1831"
       sodipodi:nodetypes="cc" />
    <text
       xml:space="preserve"
       style="font-style:normal;font-weight:normal;font-size:10.5833px;line-height:1.25;font-family:sans-serif;letter-spacing:0px;word-spacing:0px;fill:#000000;fill-opacity:1;stroke:none;stroke-width:0.264583"
       x="16.264124"
       y="-21.920103"
       id="text2019"><tspan
         sodipodi:role="line"
         id="tspan2017"
         x="16.264124"
         y="-21.920103"
         style="stroke-width:0.264583">Rib</tspan></text>
    <text
       xml:space="preserve"
       style="font-style:normal;font-weight:normal;font-size:10.5833px;line-height:1.25;font-family:sans-serif;letter-spacing:0px;word-spacing:0px;fill:#000000;fill-opacity:1;stroke:none;stroke-width:0.264583"
       x="82.884499"
       y="-21.920174"
       id="text2023"><tspan
         sodipodi:role="line"
         id="tspan2021"
         x="82.884499"
         y="-21.920174"
         style="stroke-width:0.264583">Tibia</tspan></text>
    <text
       xml:space="preserve"
       style="font-style:normal;font-weight:normal;font-size:10.5833px;line-height:1.25;font-family:sans-serif;letter-spacing:0px;word-spacing:0px;fill:#000000;fill-opacity:1;stroke:none;stroke-width:0.264583"
       x="164.97675"
       y="-21.920174"
       id="text2027"><tspan
         sodipodi:role="line"
         id="tspan2025"
         x="164.97675"
         y="-21.920174"
         style="text-align:center;text-anchor:middle;stroke-width:0.264583">Metaphyseal</tspan><tspan
         sodipodi:role="line"
         x="164.97675"
         y="-8.6910496"
         style="text-align:center;text-anchor:middle;stroke-width:0.264583"
         id="tspan2029">Metacarpal</tspan></text>
    <text
       xml:space="preserve"
       style="font-style:normal;font-weight:normal;font-size:10.5833px;line-height:1.25;font-family:sans-serif;letter-spacing:0px;word-spacing:0px;fill:#000000;fill-opacity:1;stroke:none;stroke-width:0.264583"
       x="210.70956"
       y="-22.245733"
       id="text2033"><tspan
         sodipodi:role="line"
         id="tspan2031"
         x="210.70956"
         y="-22.245733"
         style="stroke-width:0.264583">Humerus</tspan></text>
    <text
       xml:space="preserve"
       style="font-style:normal;font-weight:normal;font-size:10.5833px;line-height:1.25;font-family:sans-serif;letter-spacing:0px;word-spacing:0px;fill:#000000;fill-opacity:1;stroke:none;stroke-width:0.264583"
       x="304.97675"
       y="-21.920174"
       id="text2037"><tspan
         sodipodi:role="line"
         id="tspan2035"
         x="304.97675"
         y="-21.920174"
         style="text-align:center;text-anchor:middle;stroke-width:0.264583">Diaphyseal</tspan><tspan
         sodipodi:role="line"
         x="304.97675"
         y="-8.6910496"
         style="text-align:center;text-anchor:middle;stroke-width:0.264583"
         id="tspan2039">Metacarpal</tspan></text>
    <path
       style="fill:#ffff00;fill-opacity:1;stroke:none;stroke-width:3.77953;stroke-linejoin:round;stroke-miterlimit:4;stroke-dasharray:none;stroke-opacity:1"
       d="M 106.89346,515.90778 C 85.704908,513.67444 76.476316,510.49093 60.968503,500.06545 49.222872,492.16919 40.221069,481.49652 33.034215,466.94614 c -3.037788,-6.15026 -5.523251,-12.2182 -5.523251,-13.48432 0,-3.04262 5.310273,-7.89513 9.940521,-9.0836 9.334304,-2.39589 49.00795,-1.89855 64.485595,0.80839 3.23455,0.5657 10.15744,1.75341 15.38418,2.63935 12.53065,2.12397 22.77213,6.19145 34.19022,13.5789 13.27545,8.58915 17.16042,12.97023 23.04881,25.99212 7.53152,16.65559 6.86034,23.63886 -2.54275,26.4561 -9.62895,2.8849 -46.27759,4.04119 -65.12408,2.0547 z"
       id="path2325"
       transform="matrix(0.26458333,0,0,0.26458333,0,-29.961001)" />
    <path
       style="fill:#ffff00;fill-opacity:1;stroke:none;stroke-width:3.77953;stroke-linejoin:round;stroke-miterlimit:4;stroke-dasharray:none;stroke-opacity:1"
       d="m 361.87146,502.83183 c -27.53108,-3.41685 -51.85405,-17.27156 -57.55587,-32.78464 -2.91915,-7.9422 -2.38032,-13.78624 1.6347,-17.72948 4.11037,-4.03689 22.46489,-13.43075 33.34174,-17.06434 8.37025,-2.79622 10.45008,-3.0869 22.08698,-3.0869 h 12.84661 l 10.2379,4.97593 c 7.61499,3.70112 12.59311,7.04972 19.43096,13.0705 12.04878,10.60904 13.99979,14.70288 13.30821,27.92468 -0.26327,5.03332 -1.0675,10.27232 -1.78715,11.64223 -2.68775,5.11625 -7.56316,10.37308 -10.92206,11.77652 -4.32551,1.80731 -31.72926,2.62739 -42.62202,1.2755 z"
       id="path2327"
       transform="matrix(0.26458333,0,0,0.26458333,0,-29.961001)" />
    <path
       style="fill:#ffff00;fill-opacity:1;stroke:none;stroke-width:3.77953;stroke-linejoin:round;stroke-miterlimit:4;stroke-dasharray:none;stroke-opacity:1"
       d="m 616.12904,498.43346 c -11.11697,-3.89357 -18.62967,-9.01708 -23.82036,-16.24499 -4.60082,-6.40652 -4.98061,-10.08999 -1.70652,-16.55111 9.76338,-19.2671 27.53358,-24.63519 47.75678,-14.42656 11.11194,5.6093 16.3044,14.8331 17.14332,30.45315 0.39275,7.31271 0.16593,9.0528 -1.52923,11.7314 -3.06626,4.84514 -10.19435,7.78472 -19.8237,8.17515 -7.14678,0.28978 -9.31242,-0.0872 -18.02029,-3.13704 z"
       id="path2329"
       transform="matrix(0.26458333,0,0,0.26458333,0,-29.961001)" />
    <path
       style="fill:#ffff00;fill-opacity:1;stroke:none;stroke-width:3.77953;stroke-linejoin:round;stroke-miterlimit:4;stroke-dasharray:none;stroke-opacity:1"
       d=""
       id="path2331"
       transform="matrix(0.26458333,0,0,0.26458333,0,-29.961001)" />
    <path
       style="fill:#ffff00;fill-opacity:1;stroke:none;stroke-width:3.77953;stroke-linejoin:round;stroke-miterlimit:4;stroke-dasharray:none;stroke-opacity:1"
       d="m 969.6097,519.79721 c -9.52336,-27.18346 -17.27508,-45.07357 -26.56861,-61.31739 -13.92813,-24.34448 -20.9218,-32.2561 -42.25325,-47.79921 -12.74211,-9.28451 -23.09537,-14.47294 -32.6968,-16.38568 -3.68453,-0.73401 -5.39757,-1.37728 -3.80675,-1.42948 5.44163,-0.17858 20.1046,4.06455 28.86269,8.35221 23.66207,11.58413 43.94169,31.1812 58.68281,56.7077 9.92909,17.19375 23.74272,50.25586 26.69469,63.89215 0.70526,3.25787 0.68098,3.283 -3.17307,3.283 -3.77582,0 -3.93541,-0.14741 -5.74171,-5.3033 z"
       id="path2333"
       transform="matrix(0.26458333,0,0,0.26458333,0,-29.961001)" />
    <path
       style="fill:#ffff00;fill-opacity:1;stroke:none;stroke-width:3.77954;stroke-linejoin:round;stroke-miterlimit:4;stroke-dasharray:none;stroke-opacity:1"
       d="m 795.05088,520.97768 c -0.52819,-0.33993 -0.47596,-0.97854 0.54399,-6.6507 0.31789,-1.76786 0.95589,-4.46444 1.41778,-5.99242 0.46189,-1.52797 0.93436,-3.45655 1.04993,-4.28571 0.11558,-0.82917 0.34923,-1.90937 0.51922,-2.40044 0.16999,-0.49107 0.39261,-1.45536 0.49471,-2.14286 0.1021,-0.6875 0.4404,-2.13393 0.75178,-3.21428 0.31138,-1.08036 0.63168,-2.89099 0.71177,-4.02362 0.0801,-1.13263 0.29187,-2.32064 0.4706,-2.64001 0.17873,-0.31938 0.25179,-0.86051 0.16235,-1.20252 -0.0894,-0.34202 0.0976,-1.12496 0.41554,-1.73988 0.31799,-0.61492 0.72177,-1.79888 0.89729,-2.63101 0.17552,-0.83213 0.56444,-2.49283 0.86426,-3.69045 0.29982,-1.19762 0.62519,-2.61894 0.72303,-3.1585 0.0978,-0.53956 0.41058,-1.72933 0.69499,-2.64394 0.70765,-2.27568 2.28924,-9.16312 2.5552,-11.12722 0.11969,-0.88392 0.34924,-1.92857 0.5101,-2.32142 0.48563,-1.18596 1.7656,-6.32028 2.00329,-8.03572 0.12247,-0.88393 0.51358,-2.65178 0.86913,-3.92857 0.35555,-1.27679 0.82954,-3.31076 1.05332,-4.51995 0.51607,-2.78861 1.55445,-5.3556 4.95863,-12.25833 2.44932,-4.96651 2.72915,-5.74678 2.7538,-7.67857 0.0151,-1.18266 0.15936,-2.75939 0.32058,-3.50384 0.47555,-2.19587 -0.31208,-4.3079 -2.12278,-5.69228 -1.09934,-0.8405 -1.58279,-1.50016 -1.72244,-2.35025 -0.24208,-1.47358 0.69334,-3.27693 2.0404,-3.93361 0.53315,-0.25991 1.32473,-1.02131 1.75909,-1.69201 0.43435,-0.6707 1.08602,-1.22145 1.44816,-1.22388 0.36214,-0.002 0.73984,-0.31572 0.83934,-0.69619 0.0995,-0.38047 0.84784,-1.01294 1.66299,-1.40548 2.07654,-0.99998 3.19685,-2.13394 3.74997,-3.79561 0.26153,-0.78571 1.12224,-2.73874 1.91267,-4.34006 2.02371,-4.09977 1.57223,-4.00147 17.4266,-3.79421 3.24107,0.0424 7.33928,0.008 9.10714,-0.0769 1.76786,-0.0847 4.74107,-0.0224 6.60714,0.13844 1.86608,0.16081 2.83036,0.32039 2.14286,0.35463 -1.09995,0.0548 -1.17733,0.11749 -0.64458,0.52238 0.49917,0.37937 -0.42784,0.43185 -5.28173,0.29903 -6.84188,-0.18724 -9.74611,0.18403 -15.07903,1.92766 -7.02419,2.29659 -11.08249,5.07361 -12.38016,8.47149 -0.68722,1.79947 -0.64917,4.20139 0.16325,10.30574 0.80406,6.0415 -0.26996,9.77654 -5.428,18.87664 -2.93583,5.17955 -4.21238,8.13453 -5.93729,13.74374 -2.35277,7.65097 -10.73044,42.55414 -16.18396,67.42587 l -1.54993,7.06873 -0.89285,-0.26923 c -1.15118,-0.34712 -3.45602,-0.3589 -4.82143,-0.0246 -0.58929,0.14426 -1.28981,0.12175 -1.55672,-0.05 z"
       id="path2335"
       transform="matrix(0.26458333,0,0,0.26458333,0,-29.961001)" />
    <path
       style="fill:#ffff00;fill-opacity:1;stroke:none;stroke-width:3.77953;stroke-linejoin:round;stroke-miterlimit:4;stroke-dasharray:none;stroke-opacity:1"
       d="m 1101.7046,548.10537 c -2.5536,-0.52412 -6.2628,-0.96795 -8.2428,-0.98628 -3.7125,-0.0344 -9.9676,-1.41383 -14.9715,-3.30169 -2.4789,-0.93523 -2.8799,-1.39431 -3.029,-3.46776 l -0.1719,-2.38984 22.6719,-0.35087 c 19.9168,-0.30824 24.0263,-0.57387 33.8177,-2.1859 15.2604,-2.51244 27.4685,-5.69014 36.1793,-9.41727 12.1672,-5.20606 17.6135,-9.55947 19.8701,-15.88285 1.5216,-4.26386 1.2972,-21.66262 -0.4168,-32.32288 -3.3425,-20.78789 -8.7949,-31.26068 -20.2396,-38.87576 -7.5785,-5.0425 -16.298,-8.69266 -39.5087,-16.53903 -10.1523,-3.43198 -18.7673,-6.51377 -19.1445,-6.84843 -0.3773,-0.33466 -0.744,-2.07019 -0.8151,-3.85673 -0.071,-1.78654 -0.3249,-3.44398 -0.5642,-3.6832 -0.2392,-0.23922 -0.4349,-1.44345 -0.4349,-2.67606 0,-1.23261 -0.906,-3.67011 -2.0134,-5.41666 -2.0863,-3.29042 -4.041,-9.54743 -3.338,-10.68491 0.2393,-0.38717 1.0833,-0.39129 2.0857,-0.0102 0.9261,0.35209 2.2808,0.50719 3.0105,0.34465 5.9184,-1.31832 13.8988,-1.28953 16.485,0.0595 1.0915,0.56934 2.8684,1.03714 3.9488,1.03956 1.0803,0.002 1.9643,0.37231 1.9643,0.82198 0,0.57509 1.3864,0.68811 4.6744,0.38106 3.6732,-0.343 4.7577,-0.21952 5.0632,0.57645 0.2138,0.55713 1.5656,1.37399 3.0041,1.81524 1.4385,0.44126 4.2225,1.38279 6.1868,2.09228 3.995,1.44297 9.1964,2.95967 15.9839,4.66085 2.5054,0.62794 6.0411,2.16399 7.8571,3.41345 1.8161,1.24945 3.4626,2.22559 3.659,2.16921 1.0435,-0.29951 6.5431,3.45006 9.8215,6.69611 3.3875,3.35417 3.898,4.14443 3.686,5.70642 -0.035,0.25932 0.4469,0.75744 1.0714,1.10692 0.6245,0.34948 1.1354,1.06223 1.1354,1.58389 0,0.52166 0.4539,1.32518 1.0087,1.7856 0.5548,0.46042 1.3963,2.45301 1.8701,4.42798 0.4738,1.97496 1.2993,3.75888 1.8345,3.96426 1.0911,0.41867 2.5265,4.8619 2.0076,6.21419 -0.3105,0.80892 3.1974,8.17435 4.9033,10.29568 1.3467,1.67458 3.0455,13.39979 2.0322,14.02607 -0.6118,0.37809 0.2375,8.52397 1.2343,11.83819 0.4136,1.375 1.2789,4.42857 1.923,6.78571 0.6441,2.35715 1.617,5.89286 2.1619,7.85715 3.0232,10.89865 2.9004,18.5407 -0.4156,25.854 -1.7248,3.80396 -6.2187,9.50314 -7.4934,9.50314 -0.2252,0 -1.602,1.25288 -3.0595,2.78416 -2.3341,2.45238 -3.1607,2.83901 -6.9357,3.24433 -7.69,0.82566 -8.6364,1.1018 -12.9154,3.76875 -4.1425,2.58188 -4.3708,2.6346 -11.3703,2.62566 -3.9285,-0.005 -9.2321,-0.19125 -11.7857,-0.41385 -3.5405,-0.30864 -5.3212,-0.10779 -7.5,0.84597 -1.5714,0.68789 -4.058,1.63608 -5.5258,2.10709 -1.4677,0.47102 -2.8527,1.15438 -3.0778,1.51858 -0.2251,0.36419 -0.99,0.66217 -1.6997,0.66217 -0.7098,0 -3.5033,1.09028 -6.2079,2.42285 -2.7045,1.33257 -6.2031,2.81845 -7.7745,3.30197 -1.5714,0.48351 -3.4153,1.16108 -4.0975,1.50572 -1.8063,0.91256 -13.0099,0.61021 -18.4025,-0.49663 z"
       id="path2337"
       transform="matrix(0.26458333,0,0,0.26458333,0,-29.961001)" />
  </g>
</svg>
