<?xml version="1.0" encoding="UTF-8" standalone="no"?>
<svg
   xmlns:dc="http://purl.org/dc/elements/1.1/"
   xmlns:cc="http://creativecommons.org/ns#"
   xmlns:rdf="http://www.w3.org/1999/02/22-rdf-syntax-ns#"
   xmlns:svg="http://www.w3.org/2000/svg"
   xmlns="http://www.w3.org/2000/svg"
   xmlns:xlink="http://www.w3.org/1999/xlink"
   xmlns:sodipodi="http://sodipodi.sourceforge.net/DTD/sodipodi-0.dtd"
   xmlns:inkscape="http://www.inkscape.org/namespaces/inkscape"
   width="168mm"
   height="39.336559mm"
   viewBox="0 0 168 39.336559"
   version="1.1"
   id="svg5086"
   inkscape:version="1.0.1 (3bc2e813f5, 2020-09-07)"
   sodipodi:docname="micrograph-illustration.svg"
   inkscape:export-filename="micrograph-scale-bar.png"
   inkscape:export-xdpi="96"
   inkscape:export-ydpi="96"
   shape-rendering="crispEdges">
  <defs
     id="defs5080" />
  <sodipodi:namedview
     id="base"
     pagecolor="#ffffff"
     bordercolor="#666666"
     borderopacity="1.0"
     inkscape:pageopacity="0.0"
     inkscape:pageshadow="2"
     inkscape:zoom="1.979899"
     inkscape:cx="300.76868"
     inkscape:cy="93.302711"
     inkscape:document-units="mm"
     inkscape:current-layer="layer1"
     showgrid="true"
     inkscape:window-width="2560"
     inkscape:window-height="1376"
     inkscape:window-x="0"
     inkscape:window-y="27"
     inkscape:window-maximized="1"
     inkscape:document-rotation="0"
     units="mm"
     fit-margin-top="0"
     fit-margin-left="0"
     fit-margin-right="0"
     fit-margin-bottom="0">
    <inkscape:grid
       type="xygrid"
       id="grid6192"
       units="pt"
       spacingx="4.2333333"
       spacingy="4.2333333"
       originx="16.375062"
       originy="-246.22327" />
  </sodipodi:namedview>
  <metadata
     id="metadata5083">
    <rdf:RDF>
      <cc:Work
         rdf:about="">
        <dc:format>image/svg+xml</dc:format>
        <dc:type
           rdf:resource="http://purl.org/dc/dcmitype/StillImage" />
        <dc:title></dc:title>
      </cc:Work>
    </rdf:RDF>
  </metadata>
  <g
     inkscape:label="Layer 1"
     inkscape:groupmode="layer"
     id="layer1"
     transform="translate(16.375063,-56.461373)">
    <rect
       style="fill:#808080;fill-opacity:1;stroke:none;stroke-width:5.00734;stroke-miterlimit:4;stroke-dasharray:none;stroke-opacity:1"
       id="rect5631"
       width="297"
       height="210"
       x="-684.1369"
       y="-131.47023" />
    <rect
       y="-37.809505"
       x="-362.1012"
       height="105"
       width="74.25"
       id="rect5633"
       style="fill:#808080;fill-opacity:1;stroke:none;stroke-width:1.77036;stroke-miterlimit:4;stroke-dasharray:none;stroke-opacity:1" />
    <image
       sodipodi:absref="/home/raniere/Documents/microradiography-faxitron/img/left-10th-rib/10-scale-bar.png"
       xlink:href="left-10th-rib/10-scale-bar.png"
       width="30.000002"
       height="31.672298"
       preserveAspectRatio="none"
       id="image2541"
       x="-16.375063"
       y="64.125633"
       style="image-rendering:optimizeSpeed" />
    <image
       sodipodi:absref="/home/raniere/Documents/microradiography-faxitron/img/left-tibia-distal-third/10-scale-bar.png"
       xlink:href="left-tibia-distal-third/10-scale-bar.png"
       width="30.000002"
       height="31.672298"
       preserveAspectRatio="none"
       id="image2603"
       x="18.124935"
       y="64.125633"
       style="image-rendering:optimizeSpeed" />
    <image
       sodipodi:absref="/home/raniere/Documents/microradiography-faxitron/img/right-metacarpal-3-mid-diaphyseal/10-scale-bar.png"
       xlink:href="right-metacarpal-3-mid-diaphyseal/10-scale-bar.png"
       width="30.000002"
       height="31.672298"
       preserveAspectRatio="none"
       id="image2665"
       x="52.624935"
       y="64.125633"
       style="image-rendering:optimizeSpeed" />
    <image
       sodipodi:absref="/home/raniere/Documents/microradiography-faxitron/img/left-proximal-humerus-proximal-to-deltoid-tuberosity/10-scale-bar.png"
       xlink:href="left-proximal-humerus-proximal-to-deltoid-tuberosity/10-scale-bar.png"
       width="30.000002"
       height="31.672298"
       preserveAspectRatio="none"
       id="image3393"
       x="87.124939"
       y="64.125633"
       style="image-rendering:optimizeSpeed" />
    <image
       sodipodi:absref="/home/raniere/Documents/microradiography-faxitron/img/right-metacarpal-3-distal-diaphysis-lateral-aspect/10-scale-bar.png"
       xlink:href="right-metacarpal-3-distal-diaphysis-lateral-aspect/10-scale-bar.png"
       width="30.000002"
       height="31.672298"
       preserveAspectRatio="none"
       id="image3455"
       x="121.62494"
       y="64.125633"
       style="image-rendering:optimizeSpeed" />
    <text
       xml:space="preserve"
       style="font-style:normal;font-weight:normal;font-size:4.23333px;line-height:1.25;font-family:sans-serif;letter-spacing:0px;word-spacing:0px;display:inline;fill:#000000;fill-opacity:1;stroke:none;stroke-width:0.264583"
       x="87.137344"
       y="101.21996"
       id="text7541"><tspan
         sodipodi:role="line"
         id="tspan7539"
         x="87.137344"
         y="101.21996"
         style="stroke-width:0.264583">Transverse</tspan><tspan
         sodipodi:role="line"
         x="87.137344"
         y="106.51163"
         id="tspan7543"
         style="stroke-width:0.264583">section of the</tspan><tspan
         sodipodi:role="line"
         x="87.137344"
         y="111.80328"
         style="stroke-width:0.264583"
         id="tspan5124">proximal left</tspan><tspan
         sodipodi:role="line"
         x="87.137344"
         y="117.09495"
         id="tspan7549"
         style="stroke-width:0.264583">humerus</tspan><tspan
         sodipodi:role="line"
         x="87.137344"
         y="122.38661"
         style="stroke-width:0.264583"
         id="tspan5166">(with 3✕</tspan><tspan
         sodipodi:role="line"
         x="87.137344"
         y="127.67828"
         style="stroke-width:0.264583"
         id="tspan5168">magnification)</tspan></text>
    <text
       id="text7557"
       y="101.21996"
       x="121.63734"
       style="font-style:normal;font-weight:normal;font-size:4.23333px;line-height:1.25;font-family:sans-serif;letter-spacing:0px;word-spacing:0px;display:inline;fill:#000000;fill-opacity:1;stroke:none;stroke-width:0.264583"
       xml:space="preserve"><tspan
         id="tspan7555"
         y="101.21996"
         x="121.63734"
         sodipodi:role="line"
         style="stroke-width:0.264583">Transverse</tspan><tspan
         y="106.51163"
         x="121.63734"
         sodipodi:role="line"
         id="tspan7588"
         style="stroke-width:0.264583">section of the</tspan><tspan
         y="111.80328"
         x="121.63734"
         sodipodi:role="line"
         style="stroke-width:0.264583"
         id="tspan5130">lateral distal</tspan><tspan
         y="117.09495"
         x="121.63734"
         sodipodi:role="line"
         id="tspan7590"
         style="stroke-width:0.264583">metaphysis</tspan><tspan
         y="122.38661"
         x="121.63734"
         sodipodi:role="line"
         id="tspan7594"
         style="stroke-width:0.264583">of the right</tspan><tspan
         y="127.67828"
         x="121.63734"
         sodipodi:role="line"
         style="stroke-width:0.264583"
         id="tspan5136">third</tspan><tspan
         y="132.96994"
         x="121.63734"
         sodipodi:role="line"
         id="tspan7598"
         style="stroke-width:0.264583">metacarpal</tspan><tspan
         y="138.2616"
         x="121.63734"
         sodipodi:role="line"
         style="stroke-width:0.264583"
         id="tspan5170">(with 3✕</tspan><tspan
         y="143.55325"
         x="121.63734"
         sodipodi:role="line"
         style="stroke-width:0.264583"
         id="tspan5172">magnification)</tspan></text>
    <text
       xml:space="preserve"
       style="font-style:normal;font-weight:normal;font-size:4.23333px;line-height:1.25;font-family:sans-serif;letter-spacing:0px;word-spacing:0px;display:inline;fill:#000000;fill-opacity:1;stroke:none;stroke-width:0.264583"
       x="52.637337"
       y="101.21996"
       id="text7565"><tspan
         sodipodi:role="line"
         x="52.637337"
         y="101.21996"
         id="tspan7611"
         style="stroke-width:0.264583">Transverse</tspan><tspan
         sodipodi:role="line"
         x="52.637337"
         y="106.51163"
         id="tspan7627"
         style="stroke-width:0.264583">section of the</tspan><tspan
         sodipodi:role="line"
         x="52.637337"
         y="111.80328"
         id="tspan7629"
         style="stroke-width:0.264583">mid-diaphysis</tspan><tspan
         sodipodi:role="line"
         x="52.637337"
         y="117.09495"
         id="tspan7631"
         style="stroke-width:0.264583">of the right</tspan><tspan
         sodipodi:role="line"
         x="52.637337"
         y="122.38661"
         id="tspan7676"
         style="stroke-width:0.264583">third</tspan><tspan
         sodipodi:role="line"
         x="52.637337"
         y="127.67828"
         style="stroke-width:0.264583"
         id="tspan5118">metacarpal</tspan><tspan
         sodipodi:role="line"
         x="52.637337"
         y="132.96994"
         style="stroke-width:0.264583"
         id="tspan5162">(with 2✕</tspan><tspan
         sodipodi:role="line"
         x="52.637337"
         y="138.2616"
         style="stroke-width:0.264583"
         id="tspan5164">magnification)</tspan></text>
    <text
       id="text7573"
       y="101.21996"
       x="18.137337"
       style="font-style:normal;font-weight:normal;font-size:4.23333px;line-height:1.25;font-family:sans-serif;letter-spacing:0px;word-spacing:0px;display:inline;fill:#000000;fill-opacity:1;stroke:none;stroke-width:0.264583"
       xml:space="preserve"><tspan
         id="tspan7571"
         y="101.21996"
         x="18.137337"
         sodipodi:role="line"
         style="stroke-width:0.264583">Transverse</tspan><tspan
         y="106.51163"
         x="18.137337"
         sodipodi:role="line"
         id="tspan7638"
         style="stroke-width:0.264583">section of the</tspan><tspan
         y="111.80328"
         x="18.137337"
         sodipodi:role="line"
         style="stroke-width:0.264583"
         id="tspan5096">distal third</tspan><tspan
         y="117.09495"
         x="18.137337"
         sodipodi:role="line"
         id="tspan7640"
         style="stroke-width:0.264583">region of the</tspan><tspan
         y="122.38661"
         x="18.137337"
         sodipodi:role="line"
         style="stroke-width:0.264583"
         id="tspan5154">right tibia</tspan><tspan
         y="127.67828"
         x="18.137337"
         sodipodi:role="line"
         style="stroke-width:0.264583"
         id="tspan5156">(with 2✕</tspan><tspan
         y="132.96994"
         x="18.137337"
         sodipodi:role="line"
         style="stroke-width:0.264583"
         id="tspan5158">magnification)</tspan></text>
    <text
       xml:space="preserve"
       style="font-style:normal;font-weight:normal;font-size:4.23333px;line-height:1.25;font-family:sans-serif;letter-spacing:0px;word-spacing:0px;display:inline;fill:#000000;fill-opacity:1;stroke:none;stroke-width:0.264583"
       x="-16.362661"
       y="101.21996"
       id="text7581"><tspan
         sodipodi:role="line"
         x="-16.362661"
         y="101.21996"
         id="tspan7653"
         style="stroke-width:0.264583">Transverse</tspan><tspan
         sodipodi:role="line"
         x="-16.362661"
         y="106.51163"
         id="tspan7664"
         style="stroke-width:0.264583">section of the</tspan><tspan
         sodipodi:role="line"
         x="-16.362661"
         y="111.80328"
         id="tspan7666"
         style="stroke-width:0.264583">mid-diaphysis</tspan><tspan
         sodipodi:role="line"
         x="-16.362661"
         y="117.09495"
         id="tspan8590"
         style="stroke-width:0.264583">of the left</tspan><tspan
         sodipodi:role="line"
         x="-16.362661"
         y="122.38661"
         style="stroke-width:0.264583"
         id="tspan5090">tenth rib</tspan><tspan
         sodipodi:role="line"
         x="-16.362661"
         y="127.67828"
         style="stroke-width:0.264583"
         id="tspan5150">(with 5✕</tspan><tspan
         sodipodi:role="line"
         x="-16.362661"
         y="132.96994"
         style="stroke-width:0.264583"
         id="tspan5152">magnification)</tspan></text>
    <text
       xml:space="preserve"
       style="font-style:normal;font-weight:normal;font-size:4.23333px;line-height:1.25;font-family:sans-serif;letter-spacing:0px;word-spacing:0px;display:inline;fill:#000000;fill-opacity:1;stroke:none;stroke-width:0.264583"
       x="-4.3237166"
       y="59.677711"
       id="text16763"><tspan
         sodipodi:role="line"
         x="-4.3237166"
         y="59.677711"
         style="stroke-width:0.264583"
         id="tspan16761">(a)</tspan></text>
    <text
       xml:space="preserve"
       style="font-style:normal;font-weight:normal;font-size:4.23333px;line-height:1.25;font-family:sans-serif;letter-spacing:0px;word-spacing:0px;display:inline;fill:#000000;fill-opacity:1;stroke:none;stroke-width:0.264583"
       x="30.129772"
       y="59.677711"
       id="text16794"><tspan
         sodipodi:role="line"
         x="30.129772"
         y="59.677711"
         style="stroke-width:0.264583"
         id="tspan16792">(b)</tspan></text>
    <text
       xml:space="preserve"
       style="font-style:normal;font-weight:normal;font-size:4.23333px;line-height:1.25;font-family:sans-serif;letter-spacing:0px;word-spacing:0px;display:inline;fill:#000000;fill-opacity:1;stroke:none;stroke-width:0.264583"
       x="64.809608"
       y="59.677711"
       id="text16798"><tspan
         sodipodi:role="line"
         x="64.809608"
         y="59.677711"
         style="stroke-width:0.264583"
         id="tspan16796">(c)</tspan></text>
    <text
       xml:space="preserve"
       style="font-style:normal;font-weight:normal;font-size:4.23333px;line-height:1.25;font-family:sans-serif;letter-spacing:0px;word-spacing:0px;display:inline;fill:#000000;fill-opacity:1;stroke:none;stroke-width:0.264583"
       x="99.129776"
       y="59.677711"
       id="text16802"><tspan
         sodipodi:role="line"
         x="99.129776"
         y="59.677711"
         style="stroke-width:0.264583"
         id="tspan16800">(d)</tspan></text>
    <text
       xml:space="preserve"
       style="font-style:normal;font-weight:normal;font-size:4.23333px;line-height:1.25;font-family:sans-serif;letter-spacing:0px;word-spacing:0px;display:inline;fill:#000000;fill-opacity:1;stroke:none;stroke-width:0.264583"
       x="133.67111"
       y="59.677711"
       id="text16806"><tspan
         sodipodi:role="line"
         x="133.67111"
         y="59.677711"
         style="stroke-width:0.264583"
         id="tspan16804">(e)</tspan></text>
  </g>
</svg>
